<?xml version="1.0" encoding="UTF-8" standalone="no"?>
<!-- Created with Inkscape (http://www.inkscape.org/) -->

<svg
   width="95mm"
   height="45mm"
   viewBox="0 0 95 45"
   version="1.1"
   id="svg1"
   xml:space="preserve"
   inkscape:version="1.3.2 (091e20ef0f, 2023-11-25, custom)"
   sodipodi:docname="ALUBlockDiagram.svg"
   inkscape:export-filename="ALUBlockDiagram.png"
   inkscape:export-xdpi="96"
   inkscape:export-ydpi="96"
   xmlns:inkscape="http://www.inkscape.org/namespaces/inkscape"
   xmlns:sodipodi="http://sodipodi.sourceforge.net/DTD/sodipodi-0.dtd"
   xmlns="http://www.w3.org/2000/svg"
   xmlns:svg="http://www.w3.org/2000/svg"><sodipodi:namedview
     id="namedview1"
     pagecolor="#ffffff"
     bordercolor="#ffffff"
     borderopacity="1"
     inkscape:showpageshadow="0"
     inkscape:pageopacity="0"
     inkscape:pagecheckerboard="1"
     inkscape:deskcolor="#d1d1d1"
     inkscape:document-units="mm"
     showgrid="true"
     inkscape:zoom="6.1433221"
     inkscape:cx="112.72403"
     inkscape:cy="108.08484"
     inkscape:window-width="3840"
     inkscape:window-height="2104"
     inkscape:window-x="0"
     inkscape:window-y="0"
     inkscape:window-maximized="1"
     inkscape:current-layer="layer1"><inkscape:grid
       id="grid1"
       units="mm"
       originx="0"
       originy="0"
       spacingx="0.26458333"
       spacingy="0.26458334"
       empcolor="#000000"
       empopacity="0.44705882"
       color="#0099e5"
       opacity="0.14901961"
       empspacing="5"
       dotted="false"
       gridanglex="30"
       gridanglez="30"
       visible="true" /></sodipodi:namedview><defs
     id="defs1"><rect
       x="111"
       y="8.000001"
       width="57"
       height="34.000004"
       id="rect2" /><marker
       style="overflow:visible"
       id="marker4"
       refX="3"
       refY="0"
       orient="auto-start-reverse"
       inkscape:stockid="Concave triangle arrow"
       markerWidth="0.75"
       markerHeight="0.75"
       viewBox="0 0 1 1"
       inkscape:isstock="true"
       inkscape:collect="always"
       preserveAspectRatio="xMidYMid"><path
         transform="scale(0.7)"
         d="M -2,-4 9,0 -2,4 c 2,-2.33 2,-5.66 0,-8 z"
         style="fill:context-stroke;fill-rule:evenodd;stroke:none"
         id="path4" /></marker><marker
       style="overflow:visible"
       id="ConcaveTriangle"
       refX="3"
       refY="0"
       orient="auto-start-reverse"
       inkscape:stockid="Concave triangle arrow"
       markerWidth="0.5"
       markerHeight="0.5"
       viewBox="0 0 1 1"
       inkscape:isstock="true"
       inkscape:collect="always"
       preserveAspectRatio="xMidYMid"><path
         transform="scale(0.7)"
         d="M -2,-4 9,0 -2,4 c 2,-2.33 2,-5.66 0,-8 z"
         style="fill:context-stroke;fill-rule:evenodd;stroke:none"
         id="path7" /></marker><inkscape:path-effect
       effect="bspline"
       id="path-effect2"
       is_visible="true"
       lpeversion="1.3"
       weight="33.333333"
       steps="2"
       helper_size="0"
       apply_no_weight="true"
       apply_with_weight="true"
       only_selected="false"
       uniform="false" /><marker
       orient="auto"
       refY="0"
       refX="0"
       id="Arrow2Lend"
       style="overflow:visible"
       viewBox="0 0 12.018466 8.8389873"
       markerWidth="12.018466"
       markerHeight="8.8389874"
       preserveAspectRatio="xMidYMid"><path
         id="path2914"
         style="font-size:12px;fill-rule:evenodd;stroke-width:0.625;stroke-linejoin:round"
         d="M 8.7185878,4.0337352 -2.2072895,0.01601326 8.7185884,-4.0017078 c -1.7454984,2.3720609 -1.7354408,5.6174519 -6e-7,8.035443 z"
         transform="matrix(-1.1,0,0,-1.1,-1.1,0)" /></marker><marker
       orient="auto"
       refY="0"
       refX="0"
       id="Arrow2Lstart"
       style="overflow:visible"
       viewBox="0 0 12.018466 8.8389873"
       markerWidth="12.018466"
       markerHeight="8.8389874"
       preserveAspectRatio="xMidYMid"><path
         id="path2917"
         style="font-size:12px;fill-rule:evenodd;stroke-width:0.625;stroke-linejoin:round"
         d="M 8.7185878,4.0337352 -2.2072895,0.01601326 8.7185884,-4.0017078 c -1.7454984,2.3720609 -1.7354408,5.6174519 -6e-7,8.035443 z"
         transform="matrix(1.1,0,0,1.1,1.1,0)" /></marker><marker
       style="overflow:visible"
       id="ConcaveTriangle-8"
       refX="3.5"
       refY="0"
       orient="auto-start-reverse"
       inkscape:stockid="Concave triangle arrow"
       markerWidth="0.64999998"
       markerHeight="0.64999998"
       viewBox="0 0 1 1"
       inkscape:isstock="true"
       inkscape:collect="always"
       preserveAspectRatio="xMidYMid"><path
         transform="scale(0.7)"
         d="M -2,-4 9,0 -2,4 c 2,-2.33 2,-5.66 0,-8 z"
         style="fill:context-stroke;fill-rule:evenodd;stroke:none"
         id="path7-7" /></marker><inkscape:path-effect
       effect="bspline"
       id="path-effect2-9"
       is_visible="true"
       lpeversion="1.3"
       weight="33.333333"
       steps="2"
       helper_size="0"
       apply_no_weight="true"
       apply_with_weight="true"
       only_selected="false"
       uniform="false" /><marker
       style="overflow:visible"
       id="ConcaveTriangle-7"
       refX="3"
       refY="0"
       orient="auto-start-reverse"
       inkscape:stockid="Concave triangle arrow"
       markerWidth="0.5"
       markerHeight="0.5"
       viewBox="0 0 1 1"
       inkscape:isstock="true"
       inkscape:collect="always"
       preserveAspectRatio="xMidYMid"><path
         transform="scale(0.7)"
         d="M -2,-4 9,0 -2,4 c 2,-2.33 2,-5.66 0,-8 z"
         style="fill:context-stroke;fill-rule:evenodd;stroke:none"
         id="path7-5" /></marker><inkscape:path-effect
       effect="bspline"
       id="path-effect2-92"
       is_visible="true"
       lpeversion="1.3"
       weight="33.333333"
       steps="2"
       helper_size="0"
       apply_no_weight="true"
       apply_with_weight="true"
       only_selected="false"
       uniform="false" /><marker
       style="overflow:visible"
       id="ConcaveTriangle-8-2"
       refX="3.5"
       refY="0"
       orient="auto-start-reverse"
       inkscape:stockid="Concave triangle arrow"
       markerWidth="0.64999998"
       markerHeight="0.64999998"
       viewBox="0 0 1 1"
       inkscape:isstock="true"
       inkscape:collect="always"
       preserveAspectRatio="xMidYMid"><path
         transform="scale(0.7)"
         d="M -2,-4 9,0 -2,4 c 2,-2.33 2,-5.66 0,-8 z"
         style="fill:context-stroke;fill-rule:evenodd;stroke:none"
         id="path7-7-8" /></marker><inkscape:path-effect
       effect="bspline"
       id="path-effect2-9-9"
       is_visible="true"
       lpeversion="1.3"
       weight="33.333333"
       steps="2"
       helper_size="0"
       apply_no_weight="true"
       apply_with_weight="true"
       only_selected="false"
       uniform="false" /><marker
       style="overflow:visible"
       id="ConcaveTriangle-3"
       refX="3"
       refY="0"
       orient="auto-start-reverse"
       inkscape:stockid="Concave triangle arrow"
       markerWidth="0.5"
       markerHeight="0.5"
       viewBox="0 0 1 1"
       inkscape:isstock="true"
       inkscape:collect="always"
       preserveAspectRatio="xMidYMid"><path
         transform="scale(0.7)"
         d="M -2,-4 9,0 -2,4 c 2,-2.33 2,-5.66 0,-8 z"
         style="fill:context-stroke;fill-rule:evenodd;stroke:none"
         id="path7-1" /></marker><inkscape:path-effect
       effect="bspline"
       id="path-effect2-94"
       is_visible="true"
       lpeversion="1.3"
       weight="33.333333"
       steps="2"
       helper_size="0"
       apply_no_weight="true"
       apply_with_weight="true"
       only_selected="false"
       uniform="false" /><marker
       style="overflow:visible"
       id="ConcaveTriangle-8-7"
       refX="3.5"
       refY="0"
       orient="auto-start-reverse"
       inkscape:stockid="Concave triangle arrow"
       markerWidth="0.64999998"
       markerHeight="0.64999998"
       viewBox="0 0 1 1"
       inkscape:isstock="true"
       inkscape:collect="always"
       preserveAspectRatio="xMidYMid"><path
         transform="scale(0.7)"
         d="M -2,-4 9,0 -2,4 c 2,-2.33 2,-5.66 0,-8 z"
         style="fill:context-stroke;fill-rule:evenodd;stroke:none"
         id="path7-7-84" /></marker><inkscape:path-effect
       effect="bspline"
       id="path-effect2-9-5"
       is_visible="true"
       lpeversion="1.3"
       weight="33.333333"
       steps="2"
       helper_size="0"
       apply_no_weight="true"
       apply_with_weight="true"
       only_selected="false"
       uniform="false" /><marker
       style="overflow:visible"
       id="ConcaveTriangle-2"
       refX="3"
       refY="0"
       orient="auto-start-reverse"
       inkscape:stockid="Concave triangle arrow"
       markerWidth="0.5"
       markerHeight="0.5"
       viewBox="0 0 1 1"
       inkscape:isstock="true"
       inkscape:collect="always"
       preserveAspectRatio="xMidYMid"><path
         transform="scale(0.7)"
         d="M -2,-4 9,0 -2,4 c 2,-2.33 2,-5.66 0,-8 z"
         style="fill:context-stroke;fill-rule:evenodd;stroke:none"
         id="path7-0" /></marker><inkscape:path-effect
       effect="bspline"
       id="path-effect2-6"
       is_visible="true"
       lpeversion="1.3"
       weight="33.333333"
       steps="2"
       helper_size="0"
       apply_no_weight="true"
       apply_with_weight="true"
       only_selected="false"
       uniform="false" /><marker
       style="overflow:visible"
       id="ConcaveTriangle-8-1"
       refX="3.5"
       refY="0"
       orient="auto-start-reverse"
       inkscape:stockid="Concave triangle arrow"
       markerWidth="0.64999998"
       markerHeight="0.64999998"
       viewBox="0 0 1 1"
       inkscape:isstock="true"
       inkscape:collect="always"
       preserveAspectRatio="xMidYMid"><path
         transform="scale(0.7)"
         d="M -2,-4 9,0 -2,4 c 2,-2.33 2,-5.66 0,-8 z"
         style="fill:context-stroke;fill-rule:evenodd;stroke:none"
         id="path7-7-5" /></marker><inkscape:path-effect
       effect="bspline"
       id="path-effect2-9-54"
       is_visible="true"
       lpeversion="1.3"
       weight="33.333333"
       steps="2"
       helper_size="0"
       apply_no_weight="true"
       apply_with_weight="true"
       only_selected="false"
       uniform="false" /><marker
       style="overflow:visible"
       id="ConcaveTriangle-74"
       refX="3"
       refY="0"
       orient="auto-start-reverse"
       inkscape:stockid="Concave triangle arrow"
       markerWidth="0.5"
       markerHeight="0.5"
       viewBox="0 0 1 1"
       inkscape:isstock="true"
       inkscape:collect="always"
       preserveAspectRatio="xMidYMid"><path
         transform="scale(0.7)"
         d="M -2,-4 9,0 -2,4 c 2,-2.33 2,-5.66 0,-8 z"
         style="fill:context-stroke;fill-rule:evenodd;stroke:none"
         id="path7-52" /></marker><inkscape:path-effect
       effect="bspline"
       id="path-effect2-5"
       is_visible="true"
       lpeversion="1.3"
       weight="33.333333"
       steps="2"
       helper_size="0"
       apply_no_weight="true"
       apply_with_weight="true"
       only_selected="false"
       uniform="false" /><marker
       style="overflow:visible"
       id="ConcaveTriangle-8-4"
       refX="3.5"
       refY="0"
       orient="auto-start-reverse"
       inkscape:stockid="Concave triangle arrow"
       markerWidth="0.64999998"
       markerHeight="0.64999998"
       viewBox="0 0 1 1"
       inkscape:isstock="true"
       inkscape:collect="always"
       preserveAspectRatio="xMidYMid"><path
         transform="scale(0.7)"
         d="M -2,-4 9,0 -2,4 c 2,-2.33 2,-5.66 0,-8 z"
         style="fill:context-stroke;fill-rule:evenodd;stroke:none"
         id="path7-7-7" /></marker><inkscape:path-effect
       effect="bspline"
       id="path-effect2-9-4"
       is_visible="true"
       lpeversion="1.3"
       weight="33.333333"
       steps="2"
       helper_size="0"
       apply_no_weight="true"
       apply_with_weight="true"
       only_selected="false"
       uniform="false" /><marker
       style="overflow:visible"
       id="ConcaveTriangle-74-8"
       refX="3"
       refY="0"
       orient="auto-start-reverse"
       inkscape:stockid="Concave triangle arrow"
       markerWidth="0.5"
       markerHeight="0.5"
       viewBox="0 0 1 1"
       inkscape:isstock="true"
       inkscape:collect="always"
       preserveAspectRatio="xMidYMid"><path
         transform="scale(0.7)"
         d="M -2,-4 9,0 -2,4 c 2,-2.33 2,-5.66 0,-8 z"
         style="fill:context-stroke;fill-rule:evenodd;stroke:none"
         id="path7-52-4" /></marker><inkscape:path-effect
       effect="bspline"
       id="path-effect2-5-3"
       is_visible="true"
       lpeversion="1.3"
       weight="33.333333"
       steps="2"
       helper_size="0"
       apply_no_weight="true"
       apply_with_weight="true"
       only_selected="false"
       uniform="false" /><marker
       style="overflow:visible"
       id="ConcaveTriangle-8-4-1"
       refX="3.5"
       refY="0"
       orient="auto-start-reverse"
       inkscape:stockid="Concave triangle arrow"
       markerWidth="0.64999998"
       markerHeight="0.64999998"
       viewBox="0 0 1 1"
       inkscape:isstock="true"
       inkscape:collect="always"
       preserveAspectRatio="xMidYMid"><path
         transform="scale(0.7)"
         d="M -2,-4 9,0 -2,4 c 2,-2.33 2,-5.66 0,-8 z"
         style="fill:context-stroke;fill-rule:evenodd;stroke:none"
         id="path7-7-7-4" /></marker><inkscape:path-effect
       effect="bspline"
       id="path-effect2-9-4-9"
       is_visible="true"
       lpeversion="1.3"
       weight="33.333333"
       steps="2"
       helper_size="0"
       apply_no_weight="true"
       apply_with_weight="true"
       only_selected="false"
       uniform="false" /><marker
       style="overflow:visible"
       id="marker4-6"
       refX="3"
       refY="0"
       orient="auto-start-reverse"
       inkscape:stockid="Concave triangle arrow"
       markerWidth="0.75"
       markerHeight="0.75"
       viewBox="0 0 1 1"
       inkscape:isstock="true"
       inkscape:collect="always"
       preserveAspectRatio="xMidYMid"><path
         transform="scale(0.7)"
         d="M -2,-4 9,0 -2,4 c 2,-2.33 2,-5.66 0,-8 z"
         style="fill:context-stroke;fill-rule:evenodd;stroke:none"
         id="path4-6" /></marker><marker
       style="overflow:visible"
       id="marker4-6-4"
       refX="3"
       refY="0"
       orient="auto-start-reverse"
       inkscape:stockid="Concave triangle arrow"
       markerWidth="0.75"
       markerHeight="0.75"
       viewBox="0 0 1 1"
       inkscape:isstock="true"
       inkscape:collect="always"
       preserveAspectRatio="xMidYMid"><path
         transform="scale(0.7)"
         d="M -2,-4 9,0 -2,4 c 2,-2.33 2,-5.66 0,-8 z"
         style="fill:context-stroke;fill-rule:evenodd;stroke:none"
         id="path4-6-8" /></marker><marker
       style="overflow:visible"
       id="marker4-6-4-7"
       refX="3"
       refY="0"
       orient="auto-start-reverse"
       inkscape:stockid="Concave triangle arrow"
       markerWidth="0.75"
       markerHeight="0.75"
       viewBox="0 0 1 1"
       inkscape:isstock="true"
       inkscape:collect="always"
       preserveAspectRatio="xMidYMid"><path
         transform="scale(0.7)"
         d="M -2,-4 9,0 -2,4 c 2,-2.33 2,-5.66 0,-8 z"
         style="fill:context-stroke;fill-rule:evenodd;stroke:none"
         id="path4-6-8-2" /></marker><marker
       style="overflow:visible"
       id="ConcaveTriangle-3-6"
       refX="3"
       refY="0"
       orient="auto-start-reverse"
       inkscape:stockid="Concave triangle arrow"
       markerWidth="0.5"
       markerHeight="0.5"
       viewBox="0 0 1 1"
       inkscape:isstock="true"
       inkscape:collect="always"
       preserveAspectRatio="xMidYMid"><path
         transform="scale(0.7)"
         d="M -2,-4 9,0 -2,4 c 2,-2.33 2,-5.66 0,-8 z"
         style="fill:context-stroke;fill-rule:evenodd;stroke:none"
         id="path7-1-2" /></marker><inkscape:path-effect
       effect="bspline"
       id="path-effect2-94-6"
       is_visible="true"
       lpeversion="1.3"
       weight="33.333333"
       steps="2"
       helper_size="0"
       apply_no_weight="true"
       apply_with_weight="true"
       only_selected="false"
       uniform="false" /><marker
       style="overflow:visible"
       id="ConcaveTriangle-8-7-1"
       refX="3.5"
       refY="0"
       orient="auto-start-reverse"
       inkscape:stockid="Concave triangle arrow"
       markerWidth="0.64999998"
       markerHeight="0.64999998"
       viewBox="0 0 1 1"
       inkscape:isstock="true"
       inkscape:collect="always"
       preserveAspectRatio="xMidYMid"><path
         transform="scale(0.7)"
         d="M -2,-4 9,0 -2,4 c 2,-2.33 2,-5.66 0,-8 z"
         style="fill:context-stroke;fill-rule:evenodd;stroke:none"
         id="path7-7-84-8" /></marker><inkscape:path-effect
       effect="bspline"
       id="path-effect2-9-5-7"
       is_visible="true"
       lpeversion="1.3"
       weight="33.333333"
       steps="2"
       helper_size="0"
       apply_no_weight="true"
       apply_with_weight="true"
       only_selected="false"
       uniform="false" /><marker
       style="overflow:visible"
       id="marker4-6-4-6"
       refX="3"
       refY="0"
       orient="auto-start-reverse"
       inkscape:stockid="Concave triangle arrow"
       markerWidth="0.75"
       markerHeight="0.75"
       viewBox="0 0 1 1"
       inkscape:isstock="true"
       inkscape:collect="always"
       preserveAspectRatio="xMidYMid"><path
         transform="scale(0.7)"
         d="M -2,-4 9,0 -2,4 c 2,-2.33 2,-5.66 0,-8 z"
         style="fill:context-stroke;fill-rule:evenodd;stroke:none"
         id="path4-6-8-1" /></marker></defs><g
     inkscape:label="Ebene 1"
     inkscape:groupmode="layer"
     id="layer1"><rect
       style="fill:#ffffff;stroke:#ffffff;stroke-width:0.409967;stroke-linecap:butt;stroke-miterlimit:3.9;stroke-dasharray:none"
       id="rect6"
       width="95.262215"
       height="44.990158"
       x="-0.0054918909"
       y="-0.0054918909"
       sodipodi:insensitive="true" /><path
       style="fill:#ffffff;fill-opacity:1;fill-rule:evenodd;stroke:#000000;stroke-width:0.396875;stroke-linecap:round;stroke-linejoin:round;stroke-miterlimit:4;stroke-dasharray:none;stroke-opacity:1"
       d="m 33.069818,34.399284 0.0031,-7.94095 6.614583,-3.96875 -6.614583,-3.96875 v -7.9375 l 14.552083,7.9375 v 7.9375 c 0,0 -10.713483,5.72128 -14.552083,7.9375"
       id="path1872"
       sodipodi:nodetypes="cccccccc" /><rect
       style="fill:#ffffff;stroke:#000000;stroke-width:0.396875;stroke-linecap:square;stroke-miterlimit:3.9;stroke-dasharray:none"
       id="rect1"
       width="15.875001"
       height="5.2916646"
       x="10.583335"
       y="11.90625" /><text
       xml:space="preserve"
       style="font-size:2.11667px;font-family:'IBM Plex Mono';-inkscape-font-specification:'IBM Plex Mono';text-align:center;text-anchor:middle;fill:#000000;stroke:#000000;stroke-width:0.1;stroke-linecap:square;stroke-miterlimit:3.9;stroke-dasharray:none"
       x="18.520834"
       y="14.022918"
       id="text1"><tspan
         sodipodi:role="line"
         style="fill:#000000;stroke-width:0.1;stroke-dasharray:none"
         x="18.520834"
         y="14.022918"
         id="tspan3">A Shift-</tspan><tspan
         sodipodi:role="line"
         style="fill:#000000;stroke-width:0.1;stroke-dasharray:none"
         x="18.520834"
         y="16.668755"
         id="tspan7">Register</tspan></text><rect
       style="fill:#ffffff;stroke:#000000;stroke-width:0.396875;stroke-linecap:square;stroke-miterlimit:3.9;stroke-dasharray:none"
       id="rect1-5"
       width="15.875001"
       height="5.2916656"
       x="10.583335"
       y="27.781258" /><text
       xml:space="preserve"
       style="font-size:2.11667px;font-family:'IBM Plex Mono';-inkscape-font-specification:'IBM Plex Mono';text-align:center;text-anchor:middle;fill:#000000;stroke:#000000;stroke-width:0.1;stroke-linecap:square;stroke-miterlimit:3.9;stroke-dasharray:none"
       x="18.471094"
       y="30.994347"
       id="text1-6"><tspan
         sodipodi:role="line"
         id="tspan1-2"
         style="fill:#000000;stroke-width:0.1;stroke-dasharray:none"
         x="18.471094"
         y="30.994347">B Register</tspan></text><text
       xml:space="preserve"
       style="font-size:2.11667px;font-family:'IBM Plex Mono';-inkscape-font-specification:'IBM Plex Mono';text-align:center;text-anchor:middle;fill:#000000;stroke:#000000;stroke-width:0.1;stroke-linecap:square;stroke-miterlimit:3.9;stroke-dasharray:none"
       x="42.707699"
       y="23.217331"
       id="text1-6-6"><tspan
         sodipodi:role="line"
         id="tspan1-2-2"
         style="fill:#000000;stroke-width:0.1;stroke-dasharray:none"
         x="42.707699"
         y="23.217331">ALU</tspan></text><text
       xml:space="preserve"
       style="font-size:2.11667px;font-family:'IBM Plex Mono';-inkscape-font-specification:'IBM Plex Mono';text-align:center;text-anchor:middle;fill:#000000;stroke:#000000;stroke-width:0.1;stroke-linecap:square;stroke-miterlimit:3.9;stroke-dasharray:none"
       x="5.5992494"
       y="13.738098"
       id="text1-6-6-5"><tspan
         sodipodi:role="line"
         id="tspan1-2-2-9"
         style="fill:#000000;stroke-width:0.1;stroke-dasharray:none"
         x="5.5992494"
         y="13.738098">AAE</tspan></text><text
       xml:space="preserve"
       style="font-size:2.11667px;font-family:'IBM Plex Mono';-inkscape-font-specification:'IBM Plex Mono';text-align:center;text-anchor:middle;fill:#000000;stroke:#000000;stroke-width:0.1;stroke-linecap:square;stroke-miterlimit:3.9;stroke-dasharray:none"
       x="11.56591"
       y="20.044239"
       id="text1-6-6-5-70"><tspan
         sodipodi:role="line"
         id="tspan1-2-2-9-93"
         style="fill:#000000;stroke-width:0.1;stroke-dasharray:none"
         x="11.56591"
         y="20.044239">Shift Register</tspan><tspan
         sodipodi:role="line"
         style="fill:#000000;stroke-width:0.1;stroke-dasharray:none"
         x="11.56591"
         y="22.690077"
         id="tspan1">Control Signals</tspan></text><text
       xml:space="preserve"
       style="font-size:2.11667px;font-family:'IBM Plex Mono';-inkscape-font-specification:'IBM Plex Mono';text-align:center;text-anchor:middle;fill:#000000;stroke:#000000;stroke-width:0.1;stroke-linecap:square;stroke-miterlimit:3.9;stroke-dasharray:none"
       x="5.8208337"
       y="29.633331"
       id="text1-6-6-5-7"><tspan
         sodipodi:role="line"
         id="tspan1-2-2-9-3"
         style="fill:#000000;stroke-width:0.1;stroke-dasharray:none"
         x="5.8208337"
         y="29.633331">ABE</tspan></text><text
       xml:space="preserve"
       style="font-size:2.11667px;font-family:'IBM Plex Mono';-inkscape-font-specification:'IBM Plex Mono';text-align:center;text-anchor:middle;fill:#000000;stroke:#000000;stroke-width:0.1;stroke-linecap:square;stroke-miterlimit:3.9;stroke-dasharray:none"
       x="8.4666662"
       y="3.9687502"
       id="text1-6-6-1"><tspan
         sodipodi:role="line"
         id="tspan1-2-2-5"
         style="fill:#000000;stroke-width:0.1;stroke-dasharray:none"
         x="8.4666662"
         y="3.9687502">from</tspan><tspan
         sodipodi:role="line"
         style="fill:#000000;stroke-width:0.1;stroke-dasharray:none"
         x="8.4666662"
         y="6.6145878"
         id="tspan4">Register</tspan><tspan
         sodipodi:role="line"
         style="fill:#000000;stroke-width:0.1;stroke-dasharray:none"
         x="8.4666662"
         y="9.2604246"
         id="tspan5">Bank</tspan></text><text
       xml:space="preserve"
       style="font-size:2.11667px;font-family:'IBM Plex Mono';-inkscape-font-specification:'IBM Plex Mono';text-align:center;text-anchor:middle;fill:#000000;stroke:#000000;stroke-width:0.1;stroke-linecap:square;stroke-miterlimit:3.9;stroke-dasharray:none"
       x="88.413071"
       y="10.770158"
       id="text1-6-6-1-1"><tspan
         sodipodi:role="line"
         id="tspan1-2-2-5-0"
         style="fill:#000000;stroke-width:0.1;stroke-dasharray:none"
         x="88.413071"
         y="10.770158">to</tspan><tspan
         sodipodi:role="line"
         style="fill:#000000;stroke-width:0.1;stroke-dasharray:none"
         x="88.413071"
         y="13.415996"
         id="tspan4-3">Register</tspan><tspan
         sodipodi:role="line"
         style="fill:#000000;stroke-width:0.1;stroke-dasharray:none"
         x="88.413071"
         y="16.061832"
         id="tspan5-0">Bank</tspan></text><text
       xml:space="preserve"
       style="font-size:2.11667px;font-family:'IBM Plex Mono';-inkscape-font-specification:'IBM Plex Mono';text-align:center;text-anchor:middle;fill:#000000;stroke:#000000;stroke-width:0.1;stroke-linecap:square;stroke-miterlimit:3.9;stroke-dasharray:none"
       x="24.341665"
       y="37.570831"
       id="text1-6-6-1-0"><tspan
         sodipodi:role="line"
         id="tspan1-2-2-5-9"
         style="fill:#000000;stroke-width:0.1;stroke-dasharray:none"
         x="24.341665"
         y="37.570831">from</tspan><tspan
         sodipodi:role="line"
         style="fill:#000000;stroke-width:0.1;stroke-dasharray:none"
         x="24.341665"
         y="40.216667"
         id="tspan5-7">Data Bus</tspan></text><rect
       style="fill:#ffffff;stroke:#000000;stroke-width:0.396875;stroke-linecap:square;stroke-miterlimit:3.9;stroke-dasharray:none"
       id="rect1-7"
       width="15.875002"
       height="5.2916598"
       x="67.46875"
       y="15.875009" /><text
       xml:space="preserve"
       style="font-size:2.11667px;font-family:'IBM Plex Mono';-inkscape-font-specification:'IBM Plex Mono';text-align:center;text-anchor:middle;fill:#000000;stroke:#000000;stroke-width:0.1;stroke-linecap:square;stroke-miterlimit:3.9;stroke-dasharray:none"
       x="75.40625"
       y="19.050003"
       id="text1-0"><tspan
         sodipodi:role="line"
         id="tspan1-9"
         style="fill:#000000;stroke-width:0.1;stroke-dasharray:none"
         x="75.40625"
         y="19.050003">O Register</tspan></text><g
       id="g2"
       transform="translate(-27.781247,-85.989586)"><path
         style="fill:#ffffff;stroke:#000000;stroke-width:1.1;stroke-linecap:butt;stroke-miterlimit:3.9;stroke-dasharray:none;marker-end:url(#ConcaveTriangle)"
         d="m 54.23958,100.54167 c 1.641383,0 3.282766,-1e-5 4.924149,-1e-5"
         id="path2"
         inkscape:path-effect="#path-effect2"
         inkscape:original-d="m 54.23958,100.54167 c 1.641383,0 3.282766,0 4.924149,-1e-5"
         sodipodi:nodetypes="cc" /><path
         style="fill:#ffffff;stroke:#ffffff;stroke-width:0.6;stroke-linecap:butt;stroke-miterlimit:3.9;stroke-dasharray:none;marker-end:url(#ConcaveTriangle-8)"
         d="m 54.23958,100.54167 c 1.641383,0 3.282766,-1e-5 4.924149,-1e-5"
         id="path2-0"
         inkscape:path-effect="#path-effect2-9"
         inkscape:original-d="m 54.23958,100.54167 c 1.641383,0 3.282766,0 4.924149,-1e-5"
         sodipodi:nodetypes="cc" /></g><g
       id="g2-3"
       transform="translate(-27.678312,-70.114576)"><path
         style="fill:#ffffff;stroke:#000000;stroke-width:1.1;stroke-linecap:butt;stroke-miterlimit:3.9;stroke-dasharray:none;marker-end:url(#ConcaveTriangle-7)"
         d="m 54.23958,100.54167 c 1.641383,0 3.282766,-1e-5 4.924149,-1e-5"
         id="path2-6"
         inkscape:path-effect="#path-effect2-92"
         inkscape:original-d="m 54.23958,100.54167 c 1.641383,0 3.282766,0 4.924149,-1e-5"
         sodipodi:nodetypes="cc" /><path
         style="fill:#ffffff;stroke:#ffffff;stroke-width:0.6;stroke-linecap:butt;stroke-miterlimit:3.9;stroke-dasharray:none;marker-end:url(#ConcaveTriangle-8-2)"
         d="m 54.23958,100.54167 c 1.641383,0 3.282766,-1e-5 4.924149,-1e-5"
         id="path2-0-1"
         inkscape:path-effect="#path-effect2-9-9"
         inkscape:original-d="m 54.23958,100.54167 c 1.641383,0 3.282766,0 4.924149,-1e-5"
         sodipodi:nodetypes="cc" /></g><g
       id="g2-36"
       transform="translate(-6.5116454,-78.052076)"><path
         style="fill:#ffffff;stroke:#000000;stroke-width:1.1;stroke-linecap:butt;stroke-miterlimit:3.9;stroke-dasharray:none;marker-end:url(#ConcaveTriangle-3)"
         d="m 54.23958,100.54167 c 1.641383,0 3.282766,-1e-5 4.924149,-1e-5"
         id="path2-1"
         inkscape:path-effect="#path-effect2-94"
         inkscape:original-d="m 54.23958,100.54167 c 1.641383,0 3.282766,0 4.924149,-1e-5"
         sodipodi:nodetypes="cc" /><path
         style="fill:#ffffff;stroke:#ffffff;stroke-width:0.6;stroke-linecap:butt;stroke-miterlimit:3.9;stroke-dasharray:none;marker-end:url(#ConcaveTriangle-8-7)"
         d="m 54.23958,100.54167 c 1.641383,0 3.282766,-1e-5 4.924149,-1e-5"
         id="path2-0-0"
         inkscape:path-effect="#path-effect2-9-5"
         inkscape:original-d="m 54.23958,100.54167 c 1.641383,0 3.282766,0 4.924149,-1e-5"
         sodipodi:nodetypes="cc" /></g><g
       id="g2-36-0"
       transform="translate(6.4529372,-82.020825)"><path
         style="fill:#ffffff;stroke:#000000;stroke-width:1.1;stroke-linecap:butt;stroke-miterlimit:3.9;stroke-dasharray:none;marker-end:url(#ConcaveTriangle-3-6)"
         d="m 54.23958,100.54167 c 1.641383,0 3.282766,-1e-5 4.924149,-1e-5"
         id="path2-1-2"
         inkscape:path-effect="#path-effect2-94-6"
         inkscape:original-d="m 54.23958,100.54167 c 1.641383,0 3.282766,0 4.924149,-1e-5"
         sodipodi:nodetypes="cc" /><path
         style="fill:#ffffff;stroke:#ffffff;stroke-width:0.6;stroke-linecap:butt;stroke-miterlimit:3.9;stroke-dasharray:none;marker-end:url(#ConcaveTriangle-8-7-1)"
         d="m 54.23958,100.54167 c 1.641383,0 3.282766,-1e-5 4.924149,-1e-5"
         id="path2-0-0-3"
         inkscape:path-effect="#path-effect2-9-5-7"
         inkscape:original-d="m 54.23958,100.54167 c 1.641383,0 3.282766,0 4.924149,-1e-5"
         sodipodi:nodetypes="cc" /></g><g
       id="g2-6"
       transform="translate(29.207104,-82.020825)"><path
         style="fill:#ffffff;stroke:#000000;stroke-width:1.1;stroke-linecap:butt;stroke-miterlimit:3.9;stroke-dasharray:none;marker-end:url(#ConcaveTriangle-2)"
         d="m 54.23958,100.54167 c 1.641383,0 3.282766,-1e-5 4.924149,-1e-5"
         id="path2-5"
         inkscape:path-effect="#path-effect2-6"
         inkscape:original-d="m 54.23958,100.54167 c 1.641383,0 3.282766,0 4.924149,-1e-5"
         sodipodi:nodetypes="cc" /><path
         style="fill:#ffffff;stroke:#ffffff;stroke-width:0.6;stroke-linecap:butt;stroke-miterlimit:3.9;stroke-dasharray:none;marker-end:url(#ConcaveTriangle-8-1)"
         d="m 54.23958,100.54167 c 1.641383,0 3.282766,-1e-5 4.924149,-1e-5"
         id="path2-0-6"
         inkscape:path-effect="#path-effect2-9-54"
         inkscape:original-d="m 54.23958,100.54167 c 1.641383,0 3.282766,0 4.924149,-1e-5"
         sodipodi:nodetypes="cc" /></g><path
       style="fill:#ffffff;stroke:#000000;stroke-width:1.1;stroke-linecap:butt;stroke-miterlimit:3.9;stroke-dasharray:none;marker-end:url(#ConcaveTriangle-74)"
       d="m 57.311648,97.64578 c -10e-7,2.4646 -10e-7,4.9292 -2e-6,7.3938"
       id="path2-7"
       inkscape:path-effect="#path-effect2-5"
       inkscape:original-d="m 57.311648,97.64578 c -10e-7,2.4646 -10e-7,4.9292 -2e-6,7.3938"
       sodipodi:nodetypes="cc"
       transform="translate(-42.759563,-94.985412)" /><path
       style="fill:#ffffff;stroke:#ffffff;stroke-width:0.6;stroke-linecap:butt;stroke-miterlimit:3.9;stroke-dasharray:none;marker-end:url(#ConcaveTriangle-8-4)"
       d="m 57.311646,97.889806 c 0,2.383254 0,4.766514 0,7.149774"
       id="path2-0-8"
       inkscape:path-effect="#path-effect2-9-4"
       inkscape:original-d="m 57.311646,97.889806 c 0,2.383254 0,4.766514 0,7.149774"
       sodipodi:nodetypes="cc"
       transform="translate(-42.759563,-94.985412)" /><path
       style="fill:#ffffff;stroke:#000000;stroke-width:1.1;stroke-linecap:butt;stroke-miterlimit:3.9;stroke-dasharray:none;marker-end:url(#ConcaveTriangle-74-8)"
       d="m 56.014846,98.151375 c 0.488262,2.420695 0.976524,4.841385 1.464787,7.262085"
       id="path2-7-6"
       inkscape:path-effect="#path-effect2-5-3"
       inkscape:original-d="m 56.014846,98.151375 c 0.488263,2.420695 0.976525,4.841385 1.464787,7.262085"
       sodipodi:nodetypes="cc"
       transform="rotate(-168.59625,34.481227,72.114175)" /><path
       style="fill:#ffffff;stroke:#ffffff;stroke-width:0.6;stroke-linecap:butt;stroke-miterlimit:3.9;stroke-dasharray:none;marker-end:url(#ConcaveTriangle-8-4-1)"
       d="m 56.06716,98.410735 c 0.470823,2.334235 0.941649,4.668485 1.412473,7.002725"
       id="path2-0-8-8"
       inkscape:path-effect="#path-effect2-9-4-9"
       inkscape:original-d="m 56.06716,98.410735 c 0.470823,2.334235 0.941649,4.668485 1.412473,7.002725"
       sodipodi:nodetypes="cc"
       transform="rotate(-168.59625,34.481227,72.114175)" /><path
       style="fill:#ffffff;stroke:#000000;stroke-width:0.4;stroke-linecap:butt;stroke-miterlimit:3.9;stroke-dasharray:none;marker-end:url(#marker4)"
       d="m 2.5024316,14.552084 h 6.95799"
       id="path3"
       sodipodi:nodetypes="cc" /><path
       style="fill:#ffffff;stroke:#000000;stroke-width:0.4;stroke-linecap:butt;stroke-miterlimit:3.9;stroke-dasharray:none;marker-end:url(#marker4-6)"
       d="m 2.5024316,30.439654 h 6.95799"
       id="path3-9"
       sodipodi:nodetypes="cc" /><path
       style="fill:#ffffff;stroke:#000000;stroke-width:0.4;stroke-linecap:butt;stroke-miterlimit:3.9;stroke-dasharray:none;marker-end:url(#marker4-6-4)"
       d="m 75.406249,26.458336 -10e-7,-4.162491"
       id="path3-9-1"
       sodipodi:nodetypes="cc" /><path
       style="fill:#ffffff;stroke:#000000;stroke-width:0.4;stroke-linecap:butt;stroke-miterlimit:3.9;stroke-dasharray:none;marker-end:url(#marker4-6-4-7)"
       d="m 41.010418,37.041664 c -1.6e-5,-3.98857 0,-3.20729 -1e-6,-5.9177"
       id="path3-9-1-6"
       sodipodi:nodetypes="cc" /><g
       id="g1"
       transform="translate(44.936169,-76.174735)"><text
         xml:space="preserve"
         style="font-size:2.11667px;font-family:'IBM Plex Mono';-inkscape-font-specification:'IBM Plex Mono';text-align:center;text-anchor:middle;fill:#000000;stroke:#000000;stroke-width:0.1;stroke-linecap:square;stroke-miterlimit:3.9;stroke-dasharray:none"
         x="33.380497"
         y="101.57474"
         id="text1-6-6-5-3"><tspan
           sodipodi:role="line"
           id="tspan1-2-2-9-9"
           style="fill:#000000;stroke-width:0.1;stroke-dasharray:none"
           x="33.380497"
           y="101.57474">AOE</tspan></text></g><g
       id="g2-361"
       transform="translate(41.496586,-70.618485)"><text
         xml:space="preserve"
         style="font-size:2.11667px;font-family:'IBM Plex Mono';-inkscape-font-specification:'IBM Plex Mono';text-align:center;text-anchor:middle;fill:#000000;stroke:#000000;stroke-width:0.1;stroke-linecap:square;stroke-miterlimit:3.9;stroke-dasharray:none"
         x="32.85133"
         y="101.57474"
         id="text1-6-6-5-3-0"><tspan
           sodipodi:role="line"
           id="tspan1-2-2-9-9-6"
           style="fill:#000000;stroke-width:0.1;stroke-dasharray:none"
           x="32.85133"
           y="101.57474">COut</tspan></text><text
         xml:space="preserve"
         style="font-size:2.11667px;font-family:'IBM Plex Mono';-inkscape-font-specification:'IBM Plex Mono';text-align:center;text-anchor:middle;fill:#000000;stroke:#000000;stroke-width:0.1;stroke-linecap:square;stroke-miterlimit:3.9;stroke-dasharray:none"
         x="32.85133"
         y="107.13099"
         id="text1-6-6-5-3-0-5"><tspan
           sodipodi:role="line"
           id="tspan1-2-2-9-9-6-6"
           style="fill:#000000;stroke-width:0.1;stroke-dasharray:none"
           x="32.85133"
           y="107.13099">Flags</tspan></text><text
         xml:space="preserve"
         style="font-size:2.11667px;font-family:'IBM Plex Mono';-inkscape-font-specification:'IBM Plex Mono';text-align:center;text-anchor:middle;fill:#000000;stroke:#000000;stroke-width:0.1;stroke-linecap:square;stroke-miterlimit:3.9;stroke-dasharray:none"
         x="-19.536169"
         y="75.910149"
         id="text1-6-6-5-3-0-1"><tspan
           sodipodi:role="line"
           id="tspan1-2-2-9-9-6-5"
           style="fill:#000000;stroke-width:0.1;stroke-dasharray:none"
           x="-19.536169"
           y="75.910149">CIn</tspan></text><path
         style="fill:none;stroke:#000000;stroke-width:0.4;stroke-miterlimit:3.9;stroke-dasharray:none;marker-end:url(#marker4)"
         d="m -22.975751,73.278853 -2e-6,8.18755"
         id="path13"
         sodipodi:nodetypes="cc" /><path
         style="fill:none;stroke:#000000;stroke-width:0.4;stroke-miterlimit:3.9;stroke-dasharray:none;marker-end:url(#marker4)"
         d="m 6.2313469,95.768722 3.8658161,-0.01482 0.0355,9.260418 h 27.74575"
         id="path14"
         sodipodi:nodetypes="cccc" /></g><path
       style="fill:#ffffff;stroke:#000000;stroke-width:0.4;stroke-linecap:butt;stroke-miterlimit:3.9;stroke-dasharray:none;marker-end:url(#marker4-6-4-6)"
       d="m 58.208333,29.104169 -0.0031,-4.430509"
       id="path3-9-1-3"
       sodipodi:nodetypes="cc" /><g
       id="g2-19"
       transform="translate(27.801571,-71.999867)"><text
         xml:space="preserve"
         style="font-size:2.11667px;font-family:'IBM Plex Mono';-inkscape-font-specification:'IBM Plex Mono';text-align:center;text-anchor:middle;fill:#000000;stroke:#000000;stroke-width:0.1;stroke-linecap:square;stroke-miterlimit:3.9;stroke-dasharray:none"
         x="33.58176"
         y="99.516533"
         id="text1-6-6-5-3-4"><tspan
           sodipodi:role="line"
           id="tspan1-2-2-9-9-7"
           style="fill:#000000;stroke-width:0.1;stroke-dasharray:none"
           x="33.58176"
           y="99.516533">OSEL</tspan></text></g><g
       id="g2-1"
       transform="translate(12.934341,-65.600185)"><text
         xml:space="preserve"
         style="font-size:2.11667px;font-family:'IBM Plex Mono';-inkscape-font-specification:'IBM Plex Mono';text-align:center;text-anchor:middle;fill:#000000;stroke:#000000;stroke-width:0.1;stroke-linecap:square;stroke-miterlimit:3.9;stroke-dasharray:none"
         x="28.083485"
         y="104.46219"
         id="text1-6-6-5-3-1"><tspan
           sodipodi:role="line"
           id="tspan1-2-2-9-9-5"
           style="fill:#000000;stroke-width:0.1;stroke-dasharray:none"
           x="28.083485"
           y="104.46219">AO0-AO4</tspan></text></g><text
       xml:space="preserve"
       transform="scale(0.26458333)"
       id="text2"
       style="font-size:8px;font-family:'IBM Plex Mono';-inkscape-font-specification:'IBM Plex Mono';text-align:center;white-space:pre;shape-inside:url(#rect2);display:inline;fill:#ffffff;stroke:#ffffff;stroke-width:1.51181;stroke-miterlimit:3.9" /><path
       style="fill:none;stroke:#000000;stroke-width:0.4;stroke-miterlimit:3.9;marker-end:url(#marker4)"
       d="m 2.6458333,23.812502 19.8388267,0.03367 v -5.55625"
       id="path9"
       sodipodi:nodetypes="ccc" /><text
       xml:space="preserve"
       style="font-size:2.11667px;font-family:'IBM Plex Mono';-inkscape-font-specification:'IBM Plex Mono';text-align:center;text-anchor:middle;fill:none;stroke:#000000;stroke-width:0.4;stroke-miterlimit:3.9"
       x="3.7098622"
       y="20.284142"
       id="text9"><tspan
         sodipodi:role="line"
         id="tspan9"
         style="stroke-width:0.4"
         x="3.7098622"
         y="20.284142" /></text><path
       style="fill:none;stroke:#000000;stroke-width:0.4;stroke-miterlimit:3.9"
       d="m 54.30113,14.552079 6.553036,2.645839 c -10e-7,3.50888 0.05792,1.64303 0.05789,5.291671 l -6.672477,2.645824 1.6e-5,-10.583329 z"
       id="path10"
       sodipodi:nodetypes="cccccc" /><path
       style="fill:none;stroke:#000000;stroke-width:1.1;stroke-miterlimit:3.9;stroke-dasharray:none;marker-end:url(#ConcaveTriangle-3-6)"
       d="m 22.476234,11.707812 0.01335,-5.0932282 27.015048,3e-7 -0.02755,10.5833339 H 52.3875"
       id="path11"
       sodipodi:nodetypes="ccccc" /><path
       style="fill:none;stroke:#ffffff;stroke-width:0.6;stroke-miterlimit:3.9;stroke-dasharray:none;marker-end:url(#ConcaveTriangle-8-4)"
       d="m 22.448685,11.707812 0.01335,-5.0932284 27.015048,3e-7 -0.02755,10.5833341 h 2.910418"
       id="path11-9"
       sodipodi:nodetypes="ccccc" /><path
       style="fill:none;stroke:#000000;stroke-width:0.4;stroke-miterlimit:3.9;stroke-dasharray:none;marker-end:url(#marker4)"
       d="m 61.118749,21.166668 h 3.704167 v 10.583334 h 14.552083"
       id="path12" /></g></svg>
