<?xml version="1.0" encoding="UTF-8" standalone="no"?>
<!-- Created with Inkscape (http://www.inkscape.org/) -->

<svg
   width="62mm"
   height="81mm"
   viewBox="0 0 62 81"
   version="1.1"
   id="svg1"
   inkscape:version="1.3.2 (091e20ef0f, 2023-11-25, custom)"
   sodipodi:docname="HighMemory_BlockDiagram.svg"
   inkscape:export-filename="HighMemory_BlockDiagram.png"
   inkscape:export-xdpi="192"
   inkscape:export-ydpi="192"
   xmlns:inkscape="http://www.inkscape.org/namespaces/inkscape"
   xmlns:sodipodi="http://sodipodi.sourceforge.net/DTD/sodipodi-0.dtd"
   xmlns="http://www.w3.org/2000/svg"
   xmlns:svg="http://www.w3.org/2000/svg">
  <sodipodi:namedview
     id="namedview1"
     pagecolor="#505050"
     bordercolor="#ffffff"
     borderopacity="1"
     inkscape:showpageshadow="0"
     inkscape:pageopacity="0"
     inkscape:pagecheckerboard="1"
     inkscape:deskcolor="#d1d1d1"
     inkscape:document-units="mm"
     showgrid="true"
     inkscape:zoom="4.3439847"
     inkscape:cx="88.743406"
     inkscape:cy="204.65081"
     inkscape:window-width="3840"
     inkscape:window-height="2160"
     inkscape:window-x="0"
     inkscape:window-y="0"
     inkscape:window-maximized="1"
     inkscape:current-layer="layer1">
    <inkscape:grid
       id="grid1"
       units="px"
       originx="0"
       originy="0"
       spacingx="0.26458333"
       spacingy="0.26458334"
       empcolor="#0099e5"
       empopacity="0.30196078"
       color="#0099e5"
       opacity="0.14901961"
       empspacing="5"
       dotted="false"
       gridanglex="30"
       gridanglez="30"
       visible="true" />
  </sodipodi:namedview>
  <defs
     id="defs1">
    <marker
       style="overflow:visible"
       id="ConcaveTriangle"
       refX="0"
       refY="0"
       orient="auto-start-reverse"
       inkscape:stockid="Concave triangle arrow"
       markerWidth="0.75"
       markerHeight="0.75"
       viewBox="0 0 1 1"
       inkscape:isstock="true"
       inkscape:collect="always"
       preserveAspectRatio="xMidYMid">
      <path
         transform="scale(0.7)"
         d="M -2,-4 9,0 -2,4 c 2,-2.33 2,-5.66 0,-8 z"
         style="fill:context-stroke;fill-rule:evenodd;stroke:none"
         id="path7" />
    </marker>
    <marker
       style="overflow:visible"
       id="ConcaveTriangle-4"
       refX="0"
       refY="0"
       orient="auto-start-reverse"
       inkscape:stockid="Concave triangle arrow"
       markerWidth="0.75"
       markerHeight="0.75"
       viewBox="0 0 1 1"
       inkscape:isstock="true"
       inkscape:collect="always"
       preserveAspectRatio="xMidYMid">
      <path
         transform="scale(0.7)"
         d="M -2,-4 9,0 -2,4 c 2,-2.33 2,-5.66 0,-8 z"
         style="fill:context-stroke;fill-rule:evenodd;stroke:none"
         id="path7-4" />
    </marker>
    <marker
       style="overflow:visible"
       id="ConcaveTriangle-6"
       refX="0"
       refY="0"
       orient="auto-start-reverse"
       inkscape:stockid="Concave triangle arrow"
       markerWidth="0.75"
       markerHeight="0.75"
       viewBox="0 0 1 1"
       inkscape:isstock="true"
       inkscape:collect="always"
       preserveAspectRatio="xMidYMid">
      <path
         transform="scale(0.7)"
         d="M -2,-4 9,0 -2,4 c 2,-2.33 2,-5.66 0,-8 z"
         style="fill:context-stroke;fill-rule:evenodd;stroke:none"
         id="path7-8" />
    </marker>
    <marker
       style="overflow:visible"
       id="ConcaveTriangle-49"
       refX="0"
       refY="0"
       orient="auto-start-reverse"
       inkscape:stockid="Concave triangle arrow"
       markerWidth="0.75"
       markerHeight="0.75"
       viewBox="0 0 1 1"
       inkscape:isstock="true"
       inkscape:collect="always"
       preserveAspectRatio="xMidYMid">
      <path
         transform="scale(0.7)"
         d="M -2,-4 9,0 -2,4 c 2,-2.33 2,-5.66 0,-8 z"
         style="fill:context-stroke;fill-rule:evenodd;stroke:none"
         id="path7-2" />
    </marker>
    <marker
       style="overflow:visible"
       id="ConcaveTriangle-2"
       refX="0"
       refY="0"
       orient="auto-start-reverse"
       inkscape:stockid="Concave triangle arrow"
       markerWidth="0.75"
       markerHeight="0.75"
       viewBox="0 0 1 1"
       inkscape:isstock="true"
       inkscape:collect="always"
       preserveAspectRatio="xMidYMid">
      <path
         transform="scale(0.7)"
         d="M -2,-4 9,0 -2,4 c 2,-2.33 2,-5.66 0,-8 z"
         style="fill:context-stroke;fill-rule:evenodd;stroke:none"
         id="path7-6" />
    </marker>
    <marker
       style="overflow:visible"
       id="ConcaveTriangle-48"
       refX="0"
       refY="0"
       orient="auto-start-reverse"
       inkscape:stockid="Concave triangle arrow"
       markerWidth="0.75"
       markerHeight="0.75"
       viewBox="0 0 1 1"
       inkscape:isstock="true"
       inkscape:collect="always"
       preserveAspectRatio="xMidYMid">
      <path
         transform="scale(0.7)"
         d="M -2,-4 9,0 -2,4 c 2,-2.33 2,-5.66 0,-8 z"
         style="fill:context-stroke;fill-rule:evenodd;stroke:none"
         id="path7-7" />
    </marker>
    <marker
       style="overflow:visible"
       id="ConcaveTriangle-22"
       refX="0"
       refY="0"
       orient="auto-start-reverse"
       inkscape:stockid="Concave triangle arrow"
       markerWidth="0.75"
       markerHeight="0.75"
       viewBox="0 0 1 1"
       inkscape:isstock="true"
       inkscape:collect="always"
       preserveAspectRatio="xMidYMid">
      <path
         transform="scale(0.7)"
         d="M -2,-4 9,0 -2,4 c 2,-2.33 2,-5.66 0,-8 z"
         style="fill:context-stroke;fill-rule:evenodd;stroke:none"
         id="path7-61" />
    </marker>
    <marker
       style="overflow:visible"
       id="ConcaveTriangle-490"
       refX="0"
       refY="0"
       orient="auto-start-reverse"
       inkscape:stockid="Concave triangle arrow"
       markerWidth="0.75"
       markerHeight="0.75"
       viewBox="0 0 1 1"
       inkscape:isstock="true"
       inkscape:collect="always"
       preserveAspectRatio="xMidYMid">
      <path
         transform="scale(0.7)"
         d="M -2,-4 9,0 -2,4 c 2,-2.33 2,-5.66 0,-8 z"
         style="fill:context-stroke;fill-rule:evenodd;stroke:none"
         id="path7-9" />
    </marker>
    <marker
       style="overflow:visible"
       id="ConcaveTriangle-4-1"
       refX="0"
       refY="0"
       orient="auto-start-reverse"
       inkscape:stockid="Concave triangle arrow"
       markerWidth="0.75"
       markerHeight="0.75"
       viewBox="0 0 1 1"
       inkscape:isstock="true"
       inkscape:collect="always"
       preserveAspectRatio="xMidYMid">
      <path
         transform="scale(0.7)"
         d="M -2,-4 9,0 -2,4 c 2,-2.33 2,-5.66 0,-8 z"
         style="fill:context-stroke;fill-rule:evenodd;stroke:none"
         id="path7-4-7" />
    </marker>
    <marker
       style="overflow:visible"
       id="ConcaveTriangle-6-7"
       refX="0"
       refY="0"
       orient="auto-start-reverse"
       inkscape:stockid="Concave triangle arrow"
       markerWidth="0.75"
       markerHeight="0.75"
       viewBox="0 0 1 1"
       inkscape:isstock="true"
       inkscape:collect="always"
       preserveAspectRatio="xMidYMid">
      <path
         transform="scale(0.7)"
         d="M -2,-4 9,0 -2,4 c 2,-2.33 2,-5.66 0,-8 z"
         style="fill:context-stroke;fill-rule:evenodd;stroke:none"
         id="path7-8-1" />
    </marker>
    <marker
       style="overflow:visible"
       id="ConcaveTriangle-49-1"
       refX="0"
       refY="0"
       orient="auto-start-reverse"
       inkscape:stockid="Concave triangle arrow"
       markerWidth="0.75"
       markerHeight="0.75"
       viewBox="0 0 1 1"
       inkscape:isstock="true"
       inkscape:collect="always"
       preserveAspectRatio="xMidYMid">
      <path
         transform="scale(0.7)"
         d="M -2,-4 9,0 -2,4 c 2,-2.33 2,-5.66 0,-8 z"
         style="fill:context-stroke;fill-rule:evenodd;stroke:none"
         id="path7-2-5" />
    </marker>
    <marker
       style="overflow:visible"
       id="ConcaveTriangle-2-9"
       refX="0"
       refY="0"
       orient="auto-start-reverse"
       inkscape:stockid="Concave triangle arrow"
       markerWidth="0.75"
       markerHeight="0.75"
       viewBox="0 0 1 1"
       inkscape:isstock="true"
       inkscape:collect="always"
       preserveAspectRatio="xMidYMid">
      <path
         transform="scale(0.7)"
         d="M -2,-4 9,0 -2,4 c 2,-2.33 2,-5.66 0,-8 z"
         style="fill:context-stroke;fill-rule:evenodd;stroke:none"
         id="path7-6-7" />
    </marker>
    <marker
       style="overflow:visible"
       id="ConcaveTriangle-48-7"
       refX="0"
       refY="0"
       orient="auto-start-reverse"
       inkscape:stockid="Concave triangle arrow"
       markerWidth="0.75"
       markerHeight="0.75"
       viewBox="0 0 1 1"
       inkscape:isstock="true"
       inkscape:collect="always"
       preserveAspectRatio="xMidYMid">
      <path
         transform="scale(0.7)"
         d="M -2,-4 9,0 -2,4 c 2,-2.33 2,-5.66 0,-8 z"
         style="fill:context-stroke;fill-rule:evenodd;stroke:none"
         id="path7-7-6" />
    </marker>
    <marker
       style="overflow:visible"
       id="ConcaveTriangle-22-7"
       refX="0"
       refY="0"
       orient="auto-start-reverse"
       inkscape:stockid="Concave triangle arrow"
       markerWidth="0.75"
       markerHeight="0.75"
       viewBox="0 0 1 1"
       inkscape:isstock="true"
       inkscape:collect="always"
       preserveAspectRatio="xMidYMid">
      <path
         transform="scale(0.7)"
         d="M -2,-4 9,0 -2,4 c 2,-2.33 2,-5.66 0,-8 z"
         style="fill:context-stroke;fill-rule:evenodd;stroke:none"
         id="path7-61-3" />
    </marker>
    <marker
       style="overflow:visible"
       id="ConcaveTriangle-74"
       refX="3"
       refY="0"
       orient="auto-start-reverse"
       inkscape:stockid="Concave triangle arrow"
       markerWidth="0.5"
       markerHeight="0.5"
       viewBox="0 0 1 1"
       inkscape:isstock="true"
       inkscape:collect="always"
       preserveAspectRatio="xMidYMid">
      <path
         transform="scale(0.7)"
         d="M -2,-4 9,0 -2,4 c 2,-2.33 2,-5.66 0,-8 z"
         style="fill:context-stroke;fill-rule:evenodd;stroke:none"
         id="path7-52" />
    </marker>
    <inkscape:path-effect
       effect="bspline"
       id="path-effect2-5"
       is_visible="true"
       lpeversion="1.3"
       weight="33.333333"
       steps="2"
       helper_size="0"
       apply_no_weight="true"
       apply_with_weight="true"
       only_selected="false"
       uniform="false" />
    <marker
       style="overflow:visible"
       id="ConcaveTriangle-8-4"
       refX="3.5"
       refY="0"
       orient="auto-start-reverse"
       inkscape:stockid="Concave triangle arrow"
       markerWidth="0.64999998"
       markerHeight="0.64999998"
       viewBox="0 0 1 1"
       inkscape:isstock="true"
       inkscape:collect="always"
       preserveAspectRatio="xMidYMid">
      <path
         transform="scale(0.7)"
         d="M -2,-4 9,0 -2,4 c 2,-2.33 2,-5.66 0,-8 z"
         style="fill:context-stroke;fill-rule:evenodd;stroke:none"
         id="path7-7-7" />
    </marker>
    <inkscape:path-effect
       effect="bspline"
       id="path-effect2-9-4"
       is_visible="true"
       lpeversion="1.3"
       weight="33.333333"
       steps="2"
       helper_size="0"
       apply_no_weight="true"
       apply_with_weight="true"
       only_selected="false"
       uniform="false" />
    <marker
       style="overflow:visible"
       id="ConcaveTriangle-74-8"
       refX="3"
       refY="0"
       orient="auto-start-reverse"
       inkscape:stockid="Concave triangle arrow"
       markerWidth="0.55000001"
       markerHeight="0.55000001"
       viewBox="0 0 1 1"
       inkscape:isstock="true"
       inkscape:collect="always"
       preserveAspectRatio="xMidYMid">
      <path
         transform="scale(0.7)"
         d="M -2,-4 9,0 -2,4 c 2,-2.33 2,-5.66 0,-8 z"
         style="fill:context-stroke;fill-rule:evenodd;stroke:none"
         id="path7-52-8" />
    </marker>
    <marker
       style="overflow:visible"
       id="ConcaveTriangle-74-3"
       refX="3"
       refY="0"
       orient="auto-start-reverse"
       inkscape:stockid="Concave triangle arrow"
       markerWidth="0.5"
       markerHeight="0.5"
       viewBox="0 0 1 1"
       inkscape:isstock="true"
       inkscape:collect="always"
       preserveAspectRatio="xMidYMid">
      <path
         transform="scale(0.7)"
         d="M -2,-4 9,0 -2,4 c 2,-2.33 2,-5.66 0,-8 z"
         style="fill:context-stroke;fill-rule:evenodd;stroke:none"
         id="path7-52-85" />
    </marker>
    <inkscape:path-effect
       effect="bspline"
       id="path-effect2-5-6"
       is_visible="true"
       lpeversion="1.3"
       weight="33.333333"
       steps="2"
       helper_size="0"
       apply_no_weight="true"
       apply_with_weight="true"
       only_selected="false"
       uniform="false" />
    <marker
       style="overflow:visible"
       id="ConcaveTriangle-8-4-1"
       refX="3.5"
       refY="0"
       orient="auto-start-reverse"
       inkscape:stockid="Concave triangle arrow"
       markerWidth="0.64999998"
       markerHeight="0.64999998"
       viewBox="0 0 1 1"
       inkscape:isstock="true"
       inkscape:collect="always"
       preserveAspectRatio="xMidYMid">
      <path
         transform="scale(0.7)"
         d="M -2,-4 9,0 -2,4 c 2,-2.33 2,-5.66 0,-8 z"
         style="fill:context-stroke;fill-rule:evenodd;stroke:none"
         id="path7-7-7-1" />
    </marker>
    <inkscape:path-effect
       effect="bspline"
       id="path-effect2-9-4-5"
       is_visible="true"
       lpeversion="1.3"
       weight="33.333333"
       steps="2"
       helper_size="0"
       apply_no_weight="true"
       apply_with_weight="true"
       only_selected="false"
       uniform="false" />
    <marker
       style="overflow:visible"
       id="ConcaveTriangle-74-3-7"
       refX="3"
       refY="0"
       orient="auto-start-reverse"
       inkscape:stockid="Concave triangle arrow"
       markerWidth="0.5"
       markerHeight="0.5"
       viewBox="0 0 1 1"
       inkscape:isstock="true"
       inkscape:collect="always"
       preserveAspectRatio="xMidYMid">
      <path
         transform="scale(0.7)"
         d="M -2,-4 9,0 -2,4 c 2,-2.33 2,-5.66 0,-8 z"
         style="fill:context-stroke;fill-rule:evenodd;stroke:none"
         id="path7-52-85-5" />
    </marker>
    <inkscape:path-effect
       effect="bspline"
       id="path-effect2-5-6-9"
       is_visible="true"
       lpeversion="1.3"
       weight="33.333333"
       steps="2"
       helper_size="0"
       apply_no_weight="true"
       apply_with_weight="true"
       only_selected="false"
       uniform="false" />
    <marker
       style="overflow:visible"
       id="ConcaveTriangle-8-4-1-6"
       refX="3.5"
       refY="0"
       orient="auto-start-reverse"
       inkscape:stockid="Concave triangle arrow"
       markerWidth="0.64999998"
       markerHeight="0.64999998"
       viewBox="0 0 1 1"
       inkscape:isstock="true"
       inkscape:collect="always"
       preserveAspectRatio="xMidYMid">
      <path
         transform="scale(0.7)"
         d="M -2,-4 9,0 -2,4 c 2,-2.33 2,-5.66 0,-8 z"
         style="fill:context-stroke;fill-rule:evenodd;stroke:none"
         id="path7-7-7-1-2" />
    </marker>
    <inkscape:path-effect
       effect="bspline"
       id="path-effect2-9-4-5-1"
       is_visible="true"
       lpeversion="1.3"
       weight="33.333333"
       steps="2"
       helper_size="0"
       apply_no_weight="true"
       apply_with_weight="true"
       only_selected="false"
       uniform="false" />
    <marker
       style="overflow:visible"
       id="ConcaveTriangle-74-3-1"
       refX="3"
       refY="0"
       orient="auto-start-reverse"
       inkscape:stockid="Concave triangle arrow"
       markerWidth="0.5"
       markerHeight="0.5"
       viewBox="0 0 1 1"
       inkscape:isstock="true"
       inkscape:collect="always"
       preserveAspectRatio="xMidYMid">
      <path
         transform="scale(0.7)"
         d="M -2,-4 9,0 -2,4 c 2,-2.33 2,-5.66 0,-8 z"
         style="fill:context-stroke;fill-rule:evenodd;stroke:none"
         id="path7-52-85-8" />
    </marker>
    <inkscape:path-effect
       effect="bspline"
       id="path-effect2-5-6-5"
       is_visible="true"
       lpeversion="1.3"
       weight="33.333333"
       steps="2"
       helper_size="0"
       apply_no_weight="true"
       apply_with_weight="true"
       only_selected="false"
       uniform="false" />
    <marker
       style="overflow:visible"
       id="ConcaveTriangle-8-4-1-9"
       refX="3.5"
       refY="0"
       orient="auto-start-reverse"
       inkscape:stockid="Concave triangle arrow"
       markerWidth="0.64999998"
       markerHeight="0.64999998"
       viewBox="0 0 1 1"
       inkscape:isstock="true"
       inkscape:collect="always"
       preserveAspectRatio="xMidYMid">
      <path
         transform="scale(0.7)"
         d="M -2,-4 9,0 -2,4 c 2,-2.33 2,-5.66 0,-8 z"
         style="fill:context-stroke;fill-rule:evenodd;stroke:none"
         id="path7-7-7-1-7" />
    </marker>
    <inkscape:path-effect
       effect="bspline"
       id="path-effect2-9-4-5-5"
       is_visible="true"
       lpeversion="1.3"
       weight="33.333333"
       steps="2"
       helper_size="0"
       apply_no_weight="true"
       apply_with_weight="true"
       only_selected="false"
       uniform="false" />
    <marker
       style="overflow:visible"
       id="ConcaveTriangle-74-3-9"
       refX="3"
       refY="0"
       orient="auto-start-reverse"
       inkscape:stockid="Concave triangle arrow"
       markerWidth="0.5"
       markerHeight="0.5"
       viewBox="0 0 1 1"
       inkscape:isstock="true"
       inkscape:collect="always"
       preserveAspectRatio="xMidYMid">
      <path
         transform="scale(0.7)"
         d="M -2,-4 9,0 -2,4 c 2,-2.33 2,-5.66 0,-8 z"
         style="fill:context-stroke;fill-rule:evenodd;stroke:none"
         id="path7-52-85-6" />
    </marker>
    <inkscape:path-effect
       effect="bspline"
       id="path-effect2-5-6-4"
       is_visible="true"
       lpeversion="1.3"
       weight="33.333333"
       steps="2"
       helper_size="0"
       apply_no_weight="true"
       apply_with_weight="true"
       only_selected="false"
       uniform="false" />
    <marker
       style="overflow:visible"
       id="ConcaveTriangle-8-4-1-3"
       refX="3.5"
       refY="0"
       orient="auto-start-reverse"
       inkscape:stockid="Concave triangle arrow"
       markerWidth="0.64999998"
       markerHeight="0.64999998"
       viewBox="0 0 1 1"
       inkscape:isstock="true"
       inkscape:collect="always"
       preserveAspectRatio="xMidYMid">
      <path
         transform="scale(0.7)"
         d="M -2,-4 9,0 -2,4 c 2,-2.33 2,-5.66 0,-8 z"
         style="fill:context-stroke;fill-rule:evenodd;stroke:none"
         id="path7-7-7-1-3" />
    </marker>
    <inkscape:path-effect
       effect="bspline"
       id="path-effect2-9-4-5-3"
       is_visible="true"
       lpeversion="1.3"
       weight="33.333333"
       steps="2"
       helper_size="0"
       apply_no_weight="true"
       apply_with_weight="true"
       only_selected="false"
       uniform="false" />
    <marker
       style="overflow:visible"
       id="ConcaveTriangle-74-3-8"
       refX="3"
       refY="0"
       orient="auto-start-reverse"
       inkscape:stockid="Concave triangle arrow"
       markerWidth="0.5"
       markerHeight="0.5"
       viewBox="0 0 1 1"
       inkscape:isstock="true"
       inkscape:collect="always"
       preserveAspectRatio="xMidYMid">
      <path
         transform="scale(0.7)"
         d="M -2,-4 9,0 -2,4 c 2,-2.33 2,-5.66 0,-8 z"
         style="fill:context-stroke;fill-rule:evenodd;stroke:none"
         id="path7-52-85-89" />
    </marker>
    <inkscape:path-effect
       effect="bspline"
       id="path-effect2-5-6-7"
       is_visible="true"
       lpeversion="1.3"
       weight="33.333333"
       steps="2"
       helper_size="0"
       apply_no_weight="true"
       apply_with_weight="true"
       only_selected="false"
       uniform="false" />
    <marker
       style="overflow:visible"
       id="ConcaveTriangle-8-4-1-7"
       refX="3.5"
       refY="0"
       orient="auto-start-reverse"
       inkscape:stockid="Concave triangle arrow"
       markerWidth="0.64999998"
       markerHeight="0.64999998"
       viewBox="0 0 1 1"
       inkscape:isstock="true"
       inkscape:collect="always"
       preserveAspectRatio="xMidYMid">
      <path
         transform="scale(0.7)"
         d="M -2,-4 9,0 -2,4 c 2,-2.33 2,-5.66 0,-8 z"
         style="fill:context-stroke;fill-rule:evenodd;stroke:none"
         id="path7-7-7-1-6" />
    </marker>
    <inkscape:path-effect
       effect="bspline"
       id="path-effect2-9-4-5-4"
       is_visible="true"
       lpeversion="1.3"
       weight="33.333333"
       steps="2"
       helper_size="0"
       apply_no_weight="true"
       apply_with_weight="true"
       only_selected="false"
       uniform="false" />
    <marker
       style="overflow:visible"
       id="ConcaveTriangle-74-3-75"
       refX="3"
       refY="0"
       orient="auto-start-reverse"
       inkscape:stockid="Concave triangle arrow"
       markerWidth="0.5"
       markerHeight="0.5"
       viewBox="0 0 1 1"
       inkscape:isstock="true"
       inkscape:collect="always"
       preserveAspectRatio="xMidYMid">
      <path
         transform="scale(0.7)"
         d="M -2,-4 9,0 -2,4 c 2,-2.33 2,-5.66 0,-8 z"
         style="fill:context-stroke;fill-rule:evenodd;stroke:none"
         id="path7-52-85-4" />
    </marker>
    <inkscape:path-effect
       effect="bspline"
       id="path-effect2-5-6-8"
       is_visible="true"
       lpeversion="1.3"
       weight="33.333333"
       steps="2"
       helper_size="0"
       apply_no_weight="true"
       apply_with_weight="true"
       only_selected="false"
       uniform="false" />
    <marker
       style="overflow:visible"
       id="ConcaveTriangle-8-4-1-1"
       refX="3.5"
       refY="0"
       orient="auto-start-reverse"
       inkscape:stockid="Concave triangle arrow"
       markerWidth="0.64999998"
       markerHeight="0.64999998"
       viewBox="0 0 1 1"
       inkscape:isstock="true"
       inkscape:collect="always"
       preserveAspectRatio="xMidYMid">
      <path
         transform="scale(0.7)"
         d="M -2,-4 9,0 -2,4 c 2,-2.33 2,-5.66 0,-8 z"
         style="fill:context-stroke;fill-rule:evenodd;stroke:none"
         id="path7-7-7-1-28" />
    </marker>
    <inkscape:path-effect
       effect="bspline"
       id="path-effect2-9-4-5-9"
       is_visible="true"
       lpeversion="1.3"
       weight="33.333333"
       steps="2"
       helper_size="0"
       apply_no_weight="true"
       apply_with_weight="true"
       only_selected="false"
       uniform="false" />
    <marker
       style="overflow:visible"
       id="ConcaveTriangle-61"
       refX="0"
       refY="0"
       orient="auto-start-reverse"
       inkscape:stockid="Concave triangle arrow"
       markerWidth="0.75"
       markerHeight="0.75"
       viewBox="0 0 1 1"
       inkscape:isstock="true"
       inkscape:collect="always"
       preserveAspectRatio="xMidYMid">
      <path
         transform="scale(0.7)"
         d="M -2,-4 9,0 -2,4 c 2,-2.33 2,-5.66 0,-8 z"
         style="fill:context-stroke;fill-rule:evenodd;stroke:none"
         id="path7-3" />
    </marker>
    <marker
       style="overflow:visible"
       id="ConcaveTriangle-22-9"
       refX="0"
       refY="0"
       orient="auto-start-reverse"
       inkscape:stockid="Concave triangle arrow"
       markerWidth="0.75"
       markerHeight="0.75"
       viewBox="0 0 1 1"
       inkscape:isstock="true"
       inkscape:collect="always"
       preserveAspectRatio="xMidYMid">
      <path
         transform="scale(0.7)"
         d="M -2,-4 9,0 -2,4 c 2,-2.33 2,-5.66 0,-8 z"
         style="fill:context-stroke;fill-rule:evenodd;stroke:none"
         id="path7-61-1" />
    </marker>
    <marker
       style="overflow:visible"
       id="ConcaveTriangle-22-7-7"
       refX="0"
       refY="0"
       orient="auto-start-reverse"
       inkscape:stockid="Concave triangle arrow"
       markerWidth="0.75"
       markerHeight="0.75"
       viewBox="0 0 1 1"
       inkscape:isstock="true"
       inkscape:collect="always"
       preserveAspectRatio="xMidYMid">
      <path
         transform="scale(0.7)"
         d="M -2,-4 9,0 -2,4 c 2,-2.33 2,-5.66 0,-8 z"
         style="fill:context-stroke;fill-rule:evenodd;stroke:none"
         id="path7-61-3-5" />
    </marker>
    <marker
       style="overflow:visible"
       id="ConcaveTriangle-74-3-75-8"
       refX="3"
       refY="0"
       orient="auto-start-reverse"
       inkscape:stockid="Concave triangle arrow"
       markerWidth="0.5"
       markerHeight="0.5"
       viewBox="0 0 1 1"
       inkscape:isstock="true"
       inkscape:collect="always"
       preserveAspectRatio="xMidYMid">
      <path
         transform="scale(0.7)"
         d="M -2,-4 9,0 -2,4 c 2,-2.33 2,-5.66 0,-8 z"
         style="fill:context-stroke;fill-rule:evenodd;stroke:none"
         id="path7-52-85-4-0" />
    </marker>
    <inkscape:path-effect
       effect="bspline"
       id="path-effect2-5-6-8-4"
       is_visible="true"
       lpeversion="1.3"
       weight="33.333333"
       steps="2"
       helper_size="0"
       apply_no_weight="true"
       apply_with_weight="true"
       only_selected="false"
       uniform="false" />
    <marker
       style="overflow:visible"
       id="ConcaveTriangle-8-4-1-1-2"
       refX="3.5"
       refY="0"
       orient="auto-start-reverse"
       inkscape:stockid="Concave triangle arrow"
       markerWidth="0.64999998"
       markerHeight="0.64999998"
       viewBox="0 0 1 1"
       inkscape:isstock="true"
       inkscape:collect="always"
       preserveAspectRatio="xMidYMid">
      <path
         transform="scale(0.7)"
         d="M -2,-4 9,0 -2,4 c 2,-2.33 2,-5.66 0,-8 z"
         style="fill:context-stroke;fill-rule:evenodd;stroke:none"
         id="path7-7-7-1-28-9" />
    </marker>
    <inkscape:path-effect
       effect="bspline"
       id="path-effect2-9-4-5-9-6"
       is_visible="true"
       lpeversion="1.3"
       weight="33.333333"
       steps="2"
       helper_size="0"
       apply_no_weight="true"
       apply_with_weight="true"
       only_selected="false"
       uniform="false" />
  </defs>
  <g
     inkscape:label="Ebene 1"
     inkscape:groupmode="layer"
     id="layer1">
    <rect
       style="fill:#ffffff;stroke:#ffffff;stroke-width:0.636397;stroke-miterlimit:3.9;stroke-dasharray:none"
       id="rect13"
       width="62"
       height="81"
       x="0"
       y="0"
       sodipodi:insensitive="true" />
    <rect
       style="fill:#ffffff;stroke:#000000;stroke-width:0.4;stroke-miterlimit:3.9"
       id="rect1"
       width="15.875"
       height="15.875001"
       x="2.4498267"
       y="30.427086" />
    <text
       xml:space="preserve"
       style="font-size:2.11667px;font-family:'IBM Plex Mono';-inkscape-font-specification:'IBM Plex Mono';text-align:center;text-anchor:middle;fill:#ffffff;stroke:#000000;stroke-width:0.1;stroke-miterlimit:3.9;stroke-dasharray:none"
       x="10.526184"
       y="37.812134"
       id="text1"><tspan
         sodipodi:role="line"
         id="tspan1"
         style="fill:#000000;stroke-width:0.1;stroke-dasharray:none"
         x="10.526184"
         y="37.812134">Adress</tspan><tspan
         sodipodi:role="line"
         style="fill:#000000;stroke-width:0.1;stroke-dasharray:none"
         x="10.526184"
         y="40.45797"
         id="tspan2">Decoder</tspan></text>
    <text
       xml:space="preserve"
       style="font-size:2.11667px;font-family:'IBM Plex Mono';-inkscape-font-specification:'IBM Plex Mono';text-align:center;text-anchor:middle;fill:#ffffff;stroke:#000000;stroke-width:0.1;stroke-miterlimit:3.9;stroke-dasharray:none"
       x="-24.341667"
       y="8.7312498"
       id="text1-1"
       transform="rotate(-90)"><tspan
         sodipodi:role="line"
         style="fill:#000000;stroke-width:0.1;stroke-dasharray:none"
         x="-24.341667"
         y="8.7312498"
         id="tspan2-0">PS0-PS3</tspan></text>
    <text
       xml:space="preserve"
       style="font-size:2.11667px;font-family:'IBM Plex Mono';-inkscape-font-specification:'IBM Plex Mono';text-align:center;text-anchor:middle;fill:#ffffff;stroke:#000000;stroke-width:0.1;stroke-miterlimit:3.9;stroke-dasharray:none"
       x="-23.096806"
       y="18.219847"
       id="text1-1-0"
       transform="rotate(-90)"><tspan
         sodipodi:role="line"
         style="fill:#000000;stroke-width:0.1;stroke-dasharray:none"
         x="-23.096806"
         y="18.219847"
         id="tspan2-0-2">Adress Bus</tspan></text>
    <text
       xml:space="preserve"
       style="font-size:2.11667px;font-family:'IBM Plex Mono';-inkscape-font-specification:'IBM Plex Mono';text-align:center;text-anchor:middle;fill:#ffffff;stroke:#000000;stroke-width:0.1;stroke-miterlimit:3.9;stroke-dasharray:none"
       x="-11.641541"
       y="60.378796"
       id="text1-1-6"
       transform="rotate(-90)"><tspan
         sodipodi:role="line"
         style="fill:#000000;stroke-width:0.1;stroke-dasharray:none"
         x="-11.641541"
         y="60.378796"
         id="tspan2-0-4">Data Bus</tspan></text>
    <text
       xml:space="preserve"
       style="font-size:2.11667px;font-family:'IBM Plex Mono';-inkscape-font-specification:'IBM Plex Mono';text-align:center;text-anchor:middle;fill:#ffffff;stroke:#000000;stroke-width:0.1;stroke-miterlimit:3.9;stroke-dasharray:none"
       x="-3.2183383"
       y="56.080853"
       id="text1-1-6-8"
       transform="rotate(-90)"><tspan
         sodipodi:role="line"
         style="fill:#000000;stroke-width:0.1;stroke-dasharray:none"
         x="-3.2183383"
         y="56.080853"
         id="tspan2-0-4-6">RE</tspan></text>
    <text
       xml:space="preserve"
       style="font-size:2.11667px;font-family:'IBM Plex Mono';-inkscape-font-specification:'IBM Plex Mono';text-align:center;text-anchor:middle;fill:#ffffff;stroke:#000000;stroke-width:0.1;stroke-miterlimit:3.9;stroke-dasharray:none"
       x="-3.2266374"
       y="53.528934"
       id="text1-1-6-7"
       transform="rotate(-90)"><tspan
         sodipodi:role="line"
         style="fill:#000000;stroke-width:0.1;stroke-dasharray:none"
         x="-3.2266374"
         y="53.528934"
         id="tspan2-0-4-2">WE</tspan></text>
    <text
       xml:space="preserve"
       style="font-size:2.11667px;font-family:'IBM Plex Mono';-inkscape-font-specification:'IBM Plex Mono';text-align:center;text-anchor:middle;fill:#ffffff;stroke:#000000;stroke-width:0.1;stroke-miterlimit:3.9;stroke-dasharray:none"
       x="28.199606"
       y="9.6452732"
       id="text1-1-6-7-2"><tspan
         sodipodi:role="line"
         style="fill:#000000;stroke-width:0.1;stroke-dasharray:none"
         x="28.199606"
         y="9.6452732"
         id="tspan2-0-4-2-9">CE</tspan></text>
    <text
       xml:space="preserve"
       style="font-size:2.11667px;font-family:'IBM Plex Mono';-inkscape-font-specification:'IBM Plex Mono';text-align:center;text-anchor:middle;fill:#ffffff;stroke:#000000;stroke-width:0.1;stroke-miterlimit:3.9;stroke-dasharray:none"
       x="28.199606"
       y="19.13096"
       id="text1-1-6-7-2-1"><tspan
         sodipodi:role="line"
         style="fill:#000000;stroke-width:0.1;stroke-dasharray:none"
         x="28.199606"
         y="19.13096"
         id="tspan2-0-4-2-9-3">CE</tspan></text>
    <text
       xml:space="preserve"
       style="font-size:2.11667px;font-family:'IBM Plex Mono';-inkscape-font-specification:'IBM Plex Mono';text-align:center;text-anchor:middle;fill:#ffffff;stroke:#000000;stroke-width:0.1;stroke-miterlimit:3.9;stroke-dasharray:none"
       x="28.199606"
       y="28.616646"
       id="text1-1-6-7-2-3"><tspan
         sodipodi:role="line"
         style="fill:#000000;stroke-width:0.1;stroke-dasharray:none"
         x="28.199606"
         y="28.616646"
         id="tspan2-0-4-2-9-4">CE</tspan></text>
    <text
       xml:space="preserve"
       style="font-size:2.11667px;font-family:'IBM Plex Mono';-inkscape-font-specification:'IBM Plex Mono';text-align:center;text-anchor:middle;fill:#ffffff;stroke:#000000;stroke-width:0.1;stroke-miterlimit:3.9;stroke-dasharray:none"
       x="28.199606"
       y="37.748634"
       id="text1-1-6-7-2-19"><tspan
         sodipodi:role="line"
         style="fill:#000000;stroke-width:0.1;stroke-dasharray:none"
         x="28.199606"
         y="37.748634"
         id="tspan2-0-4-2-9-6">CE</tspan></text>
    <text
       xml:space="preserve"
       style="font-size:2.11667px;font-family:'IBM Plex Mono';-inkscape-font-specification:'IBM Plex Mono';text-align:center;text-anchor:middle;fill:#ffffff;stroke:#000000;stroke-width:0.1;stroke-miterlimit:3.9;stroke-dasharray:none"
       x="28.199606"
       y="46.880627"
       id="text1-1-6-7-2-8"><tspan
         sodipodi:role="line"
         style="fill:#000000;stroke-width:0.1;stroke-dasharray:none"
         x="28.199606"
         y="46.880627"
         id="tspan2-0-4-2-9-0">CE</tspan></text>
    <text
       xml:space="preserve"
       style="font-size:2.11667px;font-family:'IBM Plex Mono';-inkscape-font-specification:'IBM Plex Mono';text-align:center;text-anchor:middle;fill:#ffffff;stroke:#000000;stroke-width:0.1;stroke-miterlimit:3.9;stroke-dasharray:none"
       x="28.199606"
       y="56.36631"
       id="text1-1-6-7-2-4"><tspan
         sodipodi:role="line"
         style="fill:#000000;stroke-width:0.1;stroke-dasharray:none"
         x="28.199606"
         y="56.36631"
         id="tspan2-0-4-2-9-00">CE</tspan></text>
    <text
       xml:space="preserve"
       style="font-size:2.11667px;font-family:'IBM Plex Mono';-inkscape-font-specification:'IBM Plex Mono';text-align:center;text-anchor:middle;fill:#ffffff;stroke:#000000;stroke-width:0.1;stroke-miterlimit:3.9;stroke-dasharray:none"
       x="28.199606"
       y="65.374435"
       id="text1-1-6-7-2-6"><tspan
         sodipodi:role="line"
         style="fill:#000000;stroke-width:0.1;stroke-dasharray:none"
         x="28.199606"
         y="65.374435"
         id="tspan2-0-4-2-9-7">CE</tspan></text>
    <text
       xml:space="preserve"
       style="font-size:2.11667px;font-family:'IBM Plex Mono';-inkscape-font-specification:'IBM Plex Mono';text-align:center;text-anchor:middle;fill:#ffffff;stroke:#000000;stroke-width:0.1;stroke-miterlimit:3.9;stroke-dasharray:none"
       x="28.199606"
       y="74.382561"
       id="text1-1-6-7-2-6-0"><tspan
         sodipodi:role="line"
         style="fill:#000000;stroke-width:0.1;stroke-dasharray:none"
         x="28.199606"
         y="74.382561"
         id="tspan2-0-4-2-9-7-5">CE</tspan></text>
    <rect
       style="fill:#ffffff;stroke:#000000;stroke-width:0.4;stroke-miterlimit:3.9"
       id="rect1-2"
       width="15.954466"
       height="7.9247999"
       x="31.749998"
       y="6.6145835" />
    <text
       xml:space="preserve"
       style="font-size:2.11667px;font-family:'IBM Plex Mono';-inkscape-font-specification:'IBM Plex Mono';text-align:center;text-anchor:middle;fill:#ffffff;stroke:#000000;stroke-width:0.1;stroke-miterlimit:3.9;stroke-dasharray:none"
       x="39.738873"
       y="8.6825638"
       id="text1-9"><tspan
         sodipodi:role="line"
         style="fill:#000000;stroke-width:0.1;stroke-dasharray:none"
         x="39.738873"
         y="8.6825638"
         id="tspan2-2">Sector 0</tspan><tspan
         sodipodi:role="line"
         style="fill:#000000;stroke-width:0.1;stroke-dasharray:none"
         x="39.738873"
         y="11.328402"
         id="tspan4">64kx16</tspan><tspan
         sodipodi:role="line"
         style="fill:#000000;stroke-width:0.1;stroke-dasharray:none"
         x="39.738873"
         y="13.974238"
         id="tspan3">RAM</tspan></text>
    <path
       style="fill:none;stroke:#000000;stroke-width:0.4;stroke-miterlimit:3.9;stroke-dasharray:none;marker-end:url(#ConcaveTriangle)"
       d="m 51.593746,2.6458335 0.0622,5.2980166 -2.178865,-0.00635"
       id="path4"
       sodipodi:nodetypes="ccc" />
    <rect
       style="fill:#ffffff;stroke:#000000;stroke-width:0.4;stroke-miterlimit:3.9"
       id="rect1-2-3"
       width="15.954466"
       height="7.9247999"
       x="31.749994"
       y="15.875003" />
    <text
       xml:space="preserve"
       style="font-size:2.11667px;font-family:'IBM Plex Mono';-inkscape-font-specification:'IBM Plex Mono';text-align:center;text-anchor:middle;fill:#ffffff;stroke:#000000;stroke-width:0.1;stroke-miterlimit:3.9;stroke-dasharray:none"
       x="39.738869"
       y="17.942986"
       id="text1-9-7"><tspan
         sodipodi:role="line"
         style="fill:#000000;stroke-width:0.1;stroke-dasharray:none"
         x="39.738869"
         y="17.942986"
         id="tspan2-2-5">Sector 1</tspan><tspan
         sodipodi:role="line"
         style="fill:#000000;stroke-width:0.1;stroke-dasharray:none"
         x="39.738869"
         y="20.588823"
         id="tspan4-9">64kx16</tspan><tspan
         sodipodi:role="line"
         style="fill:#000000;stroke-width:0.1;stroke-dasharray:none"
         x="39.738869"
         y="23.234661"
         id="tspan3-2">RAM</tspan></text>
    <path
       style="fill:none;stroke:#000000;stroke-width:0.4;stroke-miterlimit:3.9;stroke-dasharray:none;marker-end:url(#ConcaveTriangle-4)"
       d="m 51.655946,7.9438501 10e-4,9.2319849 -1.977498,0.01568"
       id="path4-0"
       sodipodi:nodetypes="ccc" />
    <rect
       style="fill:#ffffff;stroke:#000000;stroke-width:0.4;stroke-miterlimit:3.9"
       id="rect1-2-8"
       width="15.954466"
       height="7.9247999"
       x="31.749994"
       y="25.13542" />
    <text
       xml:space="preserve"
       style="font-size:2.11667px;font-family:'IBM Plex Mono';-inkscape-font-specification:'IBM Plex Mono';text-align:center;text-anchor:middle;fill:#ffffff;stroke:#000000;stroke-width:0.1;stroke-miterlimit:3.9;stroke-dasharray:none"
       x="39.738869"
       y="27.2034"
       id="text1-9-73"><tspan
         sodipodi:role="line"
         style="fill:#000000;stroke-width:0.1;stroke-dasharray:none"
         x="39.738869"
         y="27.2034"
         id="tspan2-2-6">Sector 2</tspan><tspan
         sodipodi:role="line"
         style="fill:#000000;stroke-width:0.1;stroke-dasharray:none"
         x="39.738869"
         y="29.849237"
         id="tspan4-1">64kx16</tspan><tspan
         sodipodi:role="line"
         style="fill:#000000;stroke-width:0.1;stroke-dasharray:none"
         x="39.738869"
         y="32.495075"
         id="tspan3-29">RAM</tspan></text>
    <path
       style="fill:none;stroke:#000000;stroke-width:0.4;stroke-miterlimit:3.9;stroke-dasharray:none;marker-end:url(#ConcaveTriangle-6)"
       d="m 51.656964,17.175835 -0.06322,9.282499 -1.851066,-0.02848"
       id="path4-4"
       sodipodi:nodetypes="ccc" />
    <rect
       style="fill:#ffffff;stroke:#000000;stroke-width:0.4;stroke-miterlimit:3.9"
       id="rect1-2-8-4"
       width="15.954466"
       height="7.9247999"
       x="31.749998"
       y="34.395836" />
    <text
       xml:space="preserve"
       style="font-size:2.11667px;font-family:'IBM Plex Mono';-inkscape-font-specification:'IBM Plex Mono';text-align:center;text-anchor:middle;fill:#ffffff;stroke:#000000;stroke-width:0.1;stroke-miterlimit:3.9;stroke-dasharray:none"
       x="39.738873"
       y="36.463818"
       id="text1-9-73-7"><tspan
         sodipodi:role="line"
         style="fill:#000000;stroke-width:0.1;stroke-dasharray:none"
         x="39.738873"
         y="36.463818"
         id="tspan2-2-6-8">Sector 3</tspan><tspan
         sodipodi:role="line"
         style="fill:#000000;stroke-width:0.1;stroke-dasharray:none"
         x="39.738873"
         y="39.109653"
         id="tspan4-1-4">64kx16</tspan><tspan
         sodipodi:role="line"
         style="fill:#000000;stroke-width:0.1;stroke-dasharray:none"
         x="39.738873"
         y="41.755493"
         id="tspan3-29-5">RAM</tspan></text>
    <path
       style="fill:none;stroke:#000000;stroke-width:0.4;stroke-miterlimit:3.9;stroke-dasharray:none;marker-end:url(#ConcaveTriangle-49)"
       d="m 51.593748,26.458334 v 9.260417 l -1.852082,-5e-5"
       id="path4-6"
       sodipodi:nodetypes="ccc" />
    <rect
       style="fill:#ffffff;stroke:#000000;stroke-width:0.4;stroke-miterlimit:3.9"
       id="rect1-2-8-1"
       width="15.954466"
       height="7.9247999"
       x="31.749998"
       y="43.65625" />
    <text
       xml:space="preserve"
       style="font-size:2.11667px;font-family:'IBM Plex Mono';-inkscape-font-specification:'IBM Plex Mono';text-align:center;text-anchor:middle;fill:#ffffff;stroke:#000000;stroke-width:0.1;stroke-miterlimit:3.9;stroke-dasharray:none"
       x="39.738873"
       y="45.724232"
       id="text1-9-73-0"><tspan
         sodipodi:role="line"
         style="fill:#000000;stroke-width:0.1;stroke-dasharray:none"
         x="39.738873"
         y="45.724232"
         id="tspan2-2-6-6">Sector 4</tspan><tspan
         sodipodi:role="line"
         style="fill:#000000;stroke-width:0.1;stroke-dasharray:none"
         x="39.738873"
         y="48.370068"
         id="tspan4-1-3">64kx16</tspan><tspan
         sodipodi:role="line"
         style="fill:#000000;stroke-width:0.1;stroke-dasharray:none"
         x="39.738873"
         y="51.015907"
         id="tspan3-29-2">RAM</tspan></text>
    <path
       style="fill:none;stroke:#000000;stroke-width:0.4;stroke-miterlimit:3.9;stroke-dasharray:none;marker-end:url(#ConcaveTriangle-2)"
       d="m 51.593748,35.718751 v 9.260417 l -1.852082,-5e-5"
       id="path4-49"
       sodipodi:nodetypes="ccc" />
    <rect
       style="fill:#ffffff;stroke:#000000;stroke-width:0.4;stroke-miterlimit:3.9"
       id="rect1-2-8-1-5"
       width="15.954466"
       height="7.9247999"
       x="31.749998"
       y="52.902473" />
    <text
       xml:space="preserve"
       style="font-size:2.11667px;font-family:'IBM Plex Mono';-inkscape-font-specification:'IBM Plex Mono';text-align:center;text-anchor:middle;fill:#ffffff;stroke:#000000;stroke-width:0.1;stroke-miterlimit:3.9;stroke-dasharray:none"
       x="39.738873"
       y="54.970455"
       id="text1-9-73-0-5"><tspan
         sodipodi:role="line"
         style="fill:#000000;stroke-width:0.1;stroke-dasharray:none"
         x="39.738873"
         y="54.970455"
         id="tspan2-2-6-6-4">Sector 5</tspan><tspan
         sodipodi:role="line"
         style="fill:#000000;stroke-width:0.1;stroke-dasharray:none"
         x="39.738873"
         y="57.616291"
         id="tspan4-1-3-7">64kx16</tspan><tspan
         sodipodi:role="line"
         style="fill:#000000;stroke-width:0.1;stroke-dasharray:none"
         x="39.738873"
         y="60.262131"
         id="tspan3-29-2-6">RAM</tspan></text>
    <path
       style="fill:none;stroke:#000000;stroke-width:0.4;stroke-miterlimit:3.9;stroke-dasharray:none;marker-end:url(#ConcaveTriangle-48)"
       d="m 51.593748,44.979168 v 9.260417 l -1.852082,5e-5"
       id="path4-7"
       sodipodi:nodetypes="ccc" />
    <rect
       style="fill:#ffffff;stroke:#000000;stroke-width:0.4;stroke-miterlimit:3.9"
       id="rect1-2-8-1-3"
       width="15.954466"
       height="7.9247999"
       x="31.749998"
       y="62.177086" />
    <text
       xml:space="preserve"
       style="font-size:2.11667px;font-family:'IBM Plex Mono';-inkscape-font-specification:'IBM Plex Mono';text-align:center;text-anchor:middle;fill:#ffffff;stroke:#000000;stroke-width:0.1;stroke-miterlimit:3.9;stroke-dasharray:none"
       x="39.738873"
       y="64.245064"
       id="text1-9-73-0-7"><tspan
         sodipodi:role="line"
         style="fill:#000000;stroke-width:0.1;stroke-dasharray:none"
         x="39.738873"
         y="64.245064"
         id="tspan2-2-6-6-45">Sector 6</tspan><tspan
         sodipodi:role="line"
         style="fill:#000000;stroke-width:0.1;stroke-dasharray:none"
         x="39.738873"
         y="66.8909"
         id="tspan4-1-3-2">64kx16</tspan><tspan
         sodipodi:role="line"
         style="fill:#000000;stroke-width:0.1;stroke-dasharray:none"
         x="39.738873"
         y="69.536736"
         id="tspan3-29-2-5">RAM</tspan></text>
    <rect
       style="fill:#ffffff;stroke:#000000;stroke-width:0.4;stroke-miterlimit:3.9"
       id="rect1-2-8-1-3-2"
       width="15.954466"
       height="7.9247999"
       x="31.749998"
       y="71.4375" />
    <text
       xml:space="preserve"
       style="font-size:2.11667px;font-family:'IBM Plex Mono';-inkscape-font-specification:'IBM Plex Mono';text-align:center;text-anchor:middle;fill:#ffffff;stroke:#000000;stroke-width:0.1;stroke-miterlimit:3.9;stroke-dasharray:none"
       x="39.738873"
       y="73.505478"
       id="text1-9-73-0-7-9"><tspan
         sodipodi:role="line"
         style="fill:#000000;stroke-width:0.1;stroke-dasharray:none"
         x="39.738873"
         y="73.505478"
         id="tspan2-2-6-6-45-9">Sector 7</tspan><tspan
         sodipodi:role="line"
         style="fill:#000000;stroke-width:0.1;stroke-dasharray:none"
         x="39.738873"
         y="76.151314"
         id="tspan4-1-3-2-6">64kx16</tspan><tspan
         sodipodi:role="line"
         style="fill:#000000;stroke-width:0.1;stroke-dasharray:none"
         x="39.738873"
         y="78.79715"
         id="tspan3-29-2-5-0">RAM</tspan></text>
    <path
       style="fill:none;stroke:#000000;stroke-width:0.4;stroke-miterlimit:3.9;stroke-dasharray:none;marker-end:url(#ConcaveTriangle)"
       d="m 18.520833,38.364583 11.112499,2e-6"
       id="path5"
       sodipodi:nodetypes="cc" />
    <path
       style="fill:none;stroke:#000000;stroke-width:0.4;stroke-miterlimit:3.9;stroke-dasharray:none;marker-end:url(#ConcaveTriangle)"
       d="m 18.520833,37.058535 7.9375,-0.01687 -1e-6,-7.937498 3.175,1e-6"
       id="path6"
       sodipodi:nodetypes="cccc" />
    <path
       style="fill:none;stroke:#000000;stroke-width:0.4;stroke-miterlimit:3.9;stroke-dasharray:none;marker-end:url(#ConcaveTriangle)"
       d="m 18.256249,35.718751 5.425419,-10e-7 v -15.875 l 5.951664,1e-6"
       id="path8"
       sodipodi:nodetypes="cccc" />
    <path
       style="fill:none;stroke:#000000;stroke-width:0.4;stroke-miterlimit:3.9;stroke-dasharray:none;marker-end:url(#ConcaveTriangle)"
       d="m 18.520833,34.395833 2.645832,10e-7 v -23.8125 l 8.532328,-0.0064"
       id="path9"
       sodipodi:nodetypes="cccc" />
    <path
       style="fill:none;stroke:#000000;stroke-width:0.4;stroke-miterlimit:3.9;stroke-dasharray:none;marker-end:url(#ConcaveTriangle)"
       d="m 18.520833,39.628254 7.9375,0.05925 -0.05925,7.937502 3.367953,-0.0064"
       id="path10"
       sodipodi:nodetypes="cccc" />
    <path
       style="fill:none;stroke:#000000;stroke-width:0.4;stroke-miterlimit:3.9;stroke-dasharray:none;marker-end:url(#ConcaveTriangle)"
       d="m 18.520832,41.010418 5.291667,-2e-6 -0.01117,15.854457 5.856262,0.146052"
       id="path11"
       sodipodi:nodetypes="cccc" />
    <path
       style="fill:none;stroke:#000000;stroke-width:0.4;stroke-miterlimit:3.9;stroke-dasharray:none;marker-end:url(#ConcaveTriangle)"
       d="m 18.256249,42.333335 h 2.910416 l 1e-6,23.8125 h 8.466666"
       id="path12"
       sodipodi:nodetypes="cccc" />
    <path
       style="fill:none;stroke:#000000;stroke-width:0.4;stroke-miterlimit:3.9;stroke-dasharray:none;marker-end:url(#ConcaveTriangle-61)"
       d="m 15.874999,51.593752 h 2.645833 l 8e-6,23.8125 h 11.112499"
       id="path12-1"
       sodipodi:nodetypes="cccc" />
    <path
       style="fill:#ffffff;stroke:#000000;stroke-width:1.1;stroke-linecap:butt;stroke-miterlimit:3.9;stroke-dasharray:none;marker-end:url(#ConcaveTriangle-74)"
       d="m 57.311648,97.64578 c -10e-7,2.4646 -10e-7,4.9292 -2e-6,7.3938"
       id="path2-7"
       inkscape:path-effect="#path-effect2-5"
       inkscape:original-d="m 57.311648,97.64578 c -10e-7,2.4646 -10e-7,4.9292 -2e-6,7.3938"
       sodipodi:nodetypes="cc"
       transform="translate(-42.728647,-76.571881)" />
    <path
       style="fill:#ffffff;stroke:#ffffff;stroke-width:0.6;stroke-linecap:butt;stroke-miterlimit:3.9;stroke-dasharray:none;marker-end:url(#ConcaveTriangle-8-4)"
       d="m 57.311646,97.889806 c 0,2.383254 0,4.766514 0,7.149774"
       id="path2-0-8"
       inkscape:path-effect="#path-effect2-9-4"
       inkscape:original-d="m 57.311646,97.889806 c 0,2.383254 0,4.766514 0,7.149774"
       sodipodi:nodetypes="cc"
       transform="translate(-42.728647,-76.571881)" />
    <path
       style="fill:none;stroke:#000000;stroke-width:0.4;stroke-miterlimit:3.9;stroke-dasharray:none;marker-end:url(#ConcaveTriangle-22)"
       d="m 51.593748,54.239585 v 9.260417 l -1.852082,5e-5"
       id="path4-61"
       sodipodi:nodetypes="ccc" />
    <path
       style="fill:none;stroke:#000000;stroke-width:0.4;stroke-miterlimit:3.9;stroke-dasharray:none;marker-end:url(#ConcaveTriangle-22-9)"
       d="m 51.593746,63.500002 v 9.260417 l -1.852082,5e-5"
       id="path4-61-9"
       sodipodi:nodetypes="ccc" />
    <path
       style="fill:none;stroke:#000000;stroke-width:1;stroke-miterlimit:3.9;stroke-dasharray:none;marker-start:url(#ConcaveTriangle-74);marker-end:url(#ConcaveTriangle-74)"
       d="m 58.208329,2.6458335 0.0065,75.4062515 c -3.501289,0 -3.46017,5e-6 -8.737725,10e-7"
       id="path13"
       sodipodi:nodetypes="ccc" />
    <path
       style="fill:none;stroke:#000000;stroke-width:0.4;stroke-miterlimit:3.9;stroke-dasharray:none;marker-end:url(#ConcaveTriangle-490)"
       d="m 54.239581,2.6458336 -0.04814,7.0962795 -4.44978,0.047471"
       id="path4-5"
       sodipodi:nodetypes="ccc" />
    <path
       style="fill:#ffffff;stroke:#000000;stroke-width:1.1;stroke-linecap:butt;stroke-miterlimit:3.9;stroke-dasharray:none;marker-end:url(#ConcaveTriangle-74-3)"
       d="m 52.73015,99.089199 c -2.822222,0 -5.644444,0 -8.466666,0"
       id="path2-7-8"
       inkscape:path-effect="#path-effect2-5-6"
       inkscape:original-d="m 52.73015,99.089199 c -2.822222,0 -5.644444,0 -8.466666,0"
       sodipodi:nodetypes="cc"
       transform="translate(5.2135971,-85.860032)" />
    <path
       style="fill:none;stroke:#000000;stroke-width:0.4;stroke-miterlimit:3.9;stroke-dasharray:none;marker-end:url(#ConcaveTriangle-4-1)"
       d="m 54.191444,9.7421131 0.001,9.2319849 -4.469742,-0.0014"
       id="path4-0-6"
       sodipodi:nodetypes="ccc" />
    <path
       style="fill:none;stroke:#ffffff;stroke-width:0.6;stroke-miterlimit:3.9;stroke-dasharray:none;marker-start:url(#ConcaveTriangle-74-8);marker-end:url(#ConcaveTriangle-74-8)"
       d="m 58.208331,2.910417 0.0065,75.141669 c -3.501289,0 -3.189112,4e-6 -8.466667,0"
       id="path13-0"
       sodipodi:nodetypes="ccc" />
    <path
       style="fill:none;stroke:#000000;stroke-width:0.4;stroke-miterlimit:3.9;stroke-dasharray:none;marker-end:url(#ConcaveTriangle-6-7)"
       d="m 54.192462,18.974098 -0.06322,9.282499 -4.387578,0.05382"
       id="path4-4-3"
       sodipodi:nodetypes="ccc" />
    <path
       style="fill:#ffffff;stroke:#ffffff;stroke-width:0.6;stroke-linecap:butt;stroke-miterlimit:3.9;stroke-dasharray:none;marker-end:url(#ConcaveTriangle-8-4-1)"
       d="m 52.730151,99.089199 c -2.822218,0 -5.644442,0 -8.466667,0"
       id="path2-0-8-4"
       inkscape:path-effect="#path-effect2-9-4-5"
       inkscape:original-d="m 52.730151,99.089199 c -2.822218,0 -5.644442,0 -8.466667,0"
       sodipodi:nodetypes="cc"
       transform="translate(5.2135971,-85.860032)" />
    <path
       style="fill:none;stroke:#000000;stroke-width:0.4;stroke-miterlimit:3.9;stroke-dasharray:none;marker-end:url(#ConcaveTriangle-49-1)"
       d="m 54.129246,28.256597 v 9.260417 H 49.68473"
       id="path4-6-9"
       sodipodi:nodetypes="ccc" />
    <path
       style="fill:#ffffff;stroke:#000000;stroke-width:1.1;stroke-linecap:butt;stroke-miterlimit:3.9;stroke-dasharray:none;marker-end:url(#ConcaveTriangle-74-3-7)"
       d="m 52.584542,99.262583 c -2.773686,1.1e-5 -5.547372,2.3e-5 -8.321058,3.4e-5"
       id="path2-7-8-8"
       inkscape:path-effect="#path-effect2-5-6-9"
       inkscape:original-d="m 52.584542,99.262583 c -2.773686,1.1e-5 -5.547372,2.3e-5 -8.321058,3.4e-5"
       sodipodi:nodetypes="cc"
       transform="translate(5.2135971,-76.772999)" />
    <path
       style="fill:none;stroke:#000000;stroke-width:0.4;stroke-miterlimit:3.9;stroke-dasharray:none;marker-end:url(#ConcaveTriangle-2-9)"
       d="m 54.129246,37.517014 v 9.260417 l -4.387582,0.05382"
       id="path4-49-4"
       sodipodi:nodetypes="ccc" />
    <path
       style="fill:#ffffff;stroke:#ffffff;stroke-width:0.6;stroke-linecap:butt;stroke-miterlimit:3.9;stroke-dasharray:none;marker-end:url(#ConcaveTriangle-8-4-1-6)"
       d="m 52.730151,99.270317 c -2.822218,-0.0026 -5.644442,-0.0051 -8.466667,-0.0077"
       id="path2-0-8-4-5"
       inkscape:path-effect="#path-effect2-9-4-5-1"
       inkscape:original-d="m 52.730151,99.270317 c -2.822218,-0.0026 -5.644442,-0.0052 -8.466667,-0.0077"
       sodipodi:nodetypes="cc"
       transform="translate(5.2135971,-76.772999)" />
    <path
       style="fill:none;stroke:#000000;stroke-width:0.4;stroke-miterlimit:3.9;stroke-dasharray:none;marker-end:url(#ConcaveTriangle-48-7)"
       d="m 54.129246,46.777431 v 9.260417 h -4.443171"
       id="path4-7-8"
       sodipodi:nodetypes="ccc" />
    <path
       style="fill:#ffffff;stroke:#000000;stroke-width:1.1;stroke-linecap:butt;stroke-miterlimit:3.9;stroke-dasharray:none;marker-end:url(#ConcaveTriangle-74-3-1)"
       d="m 52.645365,99.220394 c -2.79396,-0.0037 -5.587921,-0.0073 -8.381881,-0.01097"
       id="path2-7-8-88"
       inkscape:path-effect="#path-effect2-5-6-5"
       inkscape:original-d="m 52.645365,99.220394 c -2.79396,-0.0037 -5.587921,-0.0073 -8.381881,-0.01097"
       sodipodi:nodetypes="cc"
       transform="translate(5.2135971,-67.459419)" />
    <path
       style="fill:none;stroke:#000000;stroke-width:0.4;stroke-miterlimit:3.9;stroke-dasharray:none;marker-end:url(#ConcaveTriangle-22-7)"
       d="m 54.129246,56.037848 v 9.260417 l -4.387582,0.05382"
       id="path4-61-1"
       sodipodi:nodetypes="ccc" />
    <path
       style="fill:none;stroke:#000000;stroke-width:0.4;stroke-miterlimit:3.9;stroke-dasharray:none;marker-end:url(#ConcaveTriangle-22-7-7)"
       d="m 54.129246,65.509585 v 9.260417 l -4.387582,0.05382"
       id="path4-61-1-7"
       sodipodi:nodetypes="ccc" />
    <path
       style="fill:#ffffff;stroke:#ffffff;stroke-width:0.6;stroke-linecap:butt;stroke-miterlimit:3.9;stroke-dasharray:none;marker-end:url(#ConcaveTriangle-8-4-1-9)"
       d="m 52.730151,99.20942 c -2.822218,1e-6 -5.644442,3e-6 -8.466667,4e-6"
       id="path2-0-8-4-3"
       inkscape:path-effect="#path-effect2-9-4-5-5"
       inkscape:original-d="m 52.730151,99.20942 c -2.822218,1e-6 -5.644442,3e-6 -8.466667,4e-6"
       sodipodi:nodetypes="cc"
       transform="translate(5.2135971,-67.459419)" />
    <path
       style="fill:#ffffff;stroke:#000000;stroke-width:1.1;stroke-linecap:butt;stroke-miterlimit:3.9;stroke-dasharray:none;marker-end:url(#ConcaveTriangle-74-3-9)"
       d="m 52.653475,99.222222 c -2.80398,0 -5.60796,0 -8.411939,0"
       id="path2-7-8-6"
       inkscape:path-effect="#path-effect2-5-6-4"
       inkscape:original-d="m 52.653475,99.222222 c -2.80398,0 -5.60796,0 -8.411939,0"
       sodipodi:nodetypes="cc"
       transform="translate(5.1288121,-58.211804)" />
    <path
       style="fill:#ffffff;stroke:#ffffff;stroke-width:0.6;stroke-linecap:butt;stroke-miterlimit:3.9;stroke-dasharray:none;marker-end:url(#ConcaveTriangle-8-4-1-3)"
       d="m 52.814936,99.222222 c -2.857796,0 -5.715597,0 -8.5734,0"
       id="path2-0-8-4-0"
       inkscape:path-effect="#path-effect2-9-4-5-3"
       inkscape:original-d="m 52.814936,99.222222 c -2.857796,0 -5.715597,0 -8.5734,0"
       sodipodi:nodetypes="cc"
       transform="translate(5.1288121,-58.211804)" />
    <path
       style="fill:#ffffff;stroke:#000000;stroke-width:1.1;stroke-linecap:butt;stroke-miterlimit:3.9;stroke-dasharray:none;marker-end:url(#ConcaveTriangle-74-3-8)"
       d="m 52.575323,99.089199 c -2.822222,0 -5.644444,0 -8.466667,0"
       id="path2-7-8-0"
       inkscape:path-effect="#path-effect2-5-6-7"
       inkscape:original-d="m 52.575323,99.089199 c -2.822222,0 -5.644444,0 -8.466667,0"
       sodipodi:nodetypes="cc"
       transform="translate(5.2135971,-48.818364)" />
    <path
       style="fill:#ffffff;stroke:#ffffff;stroke-width:0.6;stroke-linecap:butt;stroke-miterlimit:3.9;stroke-dasharray:none;marker-end:url(#ConcaveTriangle-8-4-1-7)"
       d="m 52.730151,99.089199 c -2.822218,0 -5.644442,0 -8.466667,0"
       id="path2-0-8-4-30"
       inkscape:path-effect="#path-effect2-9-4-5-4"
       inkscape:original-d="m 52.730151,99.089199 c -2.822218,0 -5.644442,0 -8.466667,0"
       sodipodi:nodetypes="cc"
       transform="translate(5.2135971,-48.818364)" />
    <path
       style="fill:#ffffff;stroke:#000000;stroke-width:1.1;stroke-linecap:butt;stroke-miterlimit:3.9;stroke-dasharray:none;marker-end:url(#ConcaveTriangle-74-3-75)"
       d="m 52.593574,99.122468 c -2.776697,-0.01109 -5.553393,-0.02218 -8.33009,-0.03327"
       id="path2-7-8-68"
       inkscape:path-effect="#path-effect2-5-6-8"
       inkscape:original-d="m 52.593574,99.122468 c -2.776697,-0.01109 -5.553393,-0.02218 -8.33009,-0.03327"
       sodipodi:nodetypes="cc"
       transform="translate(5.2135971,-39.591216)" />
    <path
       style="fill:#ffffff;stroke:#ffffff;stroke-width:0.6;stroke-linecap:butt;stroke-miterlimit:3.9;stroke-dasharray:none;marker-end:url(#ConcaveTriangle-8-4-1-1)"
       d="m 52.730151,99.089199 c -2.822218,0 -5.644442,0 -8.466667,0"
       id="path2-0-8-4-02"
       inkscape:path-effect="#path-effect2-9-4-5-9"
       inkscape:original-d="m 52.730151,99.089199 c -2.822218,0 -5.644442,0 -8.466667,0"
       sodipodi:nodetypes="cc"
       transform="translate(5.2135971,-39.591216)" />
    <path
       style="fill:#ffffff;stroke:#000000;stroke-width:1.1;stroke-linecap:butt;stroke-miterlimit:3.9;stroke-dasharray:none;marker-end:url(#ConcaveTriangle-74-3-75-8)"
       d="m 52.593574,99.122468 c -2.776697,-0.01109 -5.553393,-0.02218 -8.33009,-0.03327"
       id="path2-7-8-68-0"
       inkscape:path-effect="#path-effect2-5-6-8-4"
       inkscape:original-d="m 52.593574,99.122468 c -2.776697,-0.01109 -5.553393,-0.02218 -8.33009,-0.03327"
       sodipodi:nodetypes="cc"
       transform="translate(5.2135971,-30.354416)" />
    <path
       style="fill:#ffffff;stroke:#ffffff;stroke-width:0.6;stroke-linecap:butt;stroke-miterlimit:3.9;stroke-dasharray:none;marker-end:url(#ConcaveTriangle-8-4-1-1-2)"
       d="m 52.730151,99.089199 c -2.822218,0 -5.644442,0 -8.466667,0"
       id="path2-0-8-4-02-4"
       inkscape:path-effect="#path-effect2-9-4-5-9-6"
       inkscape:original-d="m 52.730151,99.089199 c -2.822218,0 -5.644442,0 -8.466667,0"
       sodipodi:nodetypes="cc"
       transform="translate(5.2135971,-30.354416)" />
    <path
       style="fill:#ffffff;stroke:#000000;stroke-width:0.4;stroke-miterlimit:3.9;stroke-dasharray:none"
       d="m 15.874999,46.502087 v 5.290359"
       id="path14"
       sodipodi:nodetypes="cc" />
    <path
       style="fill:#ffffff;stroke:#000000;stroke-width:0.4;stroke-miterlimit:3.9;stroke-dasharray:none;marker-end:url(#ConcaveTriangle)"
       d="m 9.2604158,22.489584 2e-7,6.085417"
       id="path15"
       sodipodi:nodetypes="cc" />
  </g>
</svg>
